{
  "project_info": {
    "project_number": "157705050539",
    "firebase_url": "https://labour-57550.firebaseio.com",
    "project_id": "labour-57550",
    "storage_bucket": "labour-57550.appspot.com"
  },
  "client": [
    {
      "client_info": {
        "mobilesdk_app_id": "1:157705050539:android:70258bd174e1d918",
        "android_client_info": {
          "package_name": "asanee.tosaganjana.kku.ac.th.labour"
        }
      },
      "oauth_client": [
        {
          "client_id": "157705050539-bca677di2k4evqi5bkfdttbire62h55o.apps.googleusercontent.com",
          "client_type": 1,
          "android_info": {
            "package_name": "asanee.tosaganjana.kku.ac.th.labour",
            "certificate_hash": "371f4e89cb28729d256f3631314cacac9b3ce597"
          }
        },
        {
          "client_id": "157705050539-ot8k7m29ddqsbc0aqvuvqq4fm86c42li.apps.googleusercontent.com",
          "client_type": 3
        }
      ],
      "api_key": [
        {
          "current_key": "AIzaSyCzXlxMIaTKyCBpl0aPfwei0uXeKdwI08o"
        }
      ],
      "services": {
        "analytics_service": {
          "status": 1
        },
        "appinvite_service": {
          "status": 2,
          "other_platform_oauth_client": [
            {
              "client_id": "157705050539-ot8k7m29ddqsbc0aqvuvqq4fm86c42li.apps.googleusercontent.com",
              "client_type": 3
            }
          ]
        },
        "ads_service": {
          "status": 2
        }
      }
    }
  ],
  "configuration_version": "1"
}