{
  "th": {
    "amphoes": [
      {
        "pid": "0000",
        "name": "-- pleases select --",
        "changwat_pid": "00"
      },
      {
        "pid": "1001",
        "name": "พระนคร",
        "changwat_pid": "10"
      },
      {
        "pid": "1002",
        "name": "ดุสิต",
        "changwat_pid": "10"
      },
      {
        "pid": "1003",
        "name": "หนองจอก",
        "changwat_pid": "10"
      },
      {
        "pid": "1004",
        "name": "บางรัก",
        "changwat_pid": "10"
      },
      {
        "pid": "1005",
        "name": "บางเขน",
        "changwat_pid": "10"
      },
      {
        "pid": "1006",
        "name": "บางกะปิ",
        "changwat_pid": "10"
      },
      {
        "pid": "1007",
        "name": "ปทุมวัน",
        "changwat_pid": "10"
      },
      {
        "pid": "1008",
        "name": "ป้อมปราบศัตรูพ่าย",
        "changwat_pid": "10"
      },
      {
        "pid": "1009",
        "name": "พระโขนง",
        "changwat_pid": "10"
      },
      {
        "pid": "1010",
        "name": "มีนบุรี",
        "changwat_pid": "10"
      },
      {
        "pid": "1011",
        "name": "ลาดกระบัง",
        "changwat_pid": "10"
      },
      {
        "pid": "1012",
        "name": "ยานนาวา",
        "changwat_pid": "10"
      },
      {
        "pid": "1013",
        "name": "สัมพันธวงศ์",
        "changwat_pid": "10"
      },
      {
        "pid": "1014",
        "name": "พญาไท",
        "changwat_pid": "10"
      },
      {
        "pid": "1015",
        "name": "ธนบุรี",
        "changwat_pid": "10"
      },
      {
        "pid": "1016",
        "name": "บางกอกใหญ่",
        "changwat_pid": "10"
      },
      {
        "pid": "1017",
        "name": "ห้วยขวาง",
        "changwat_pid": "10"
      },
      {
        "pid": "1018",
        "name": "คลองสาน",
        "changwat_pid": "10"
      },
      {
        "pid": "1019",
        "name": "ตลิ่งชัน",
        "changwat_pid": "10"
      },
      {
        "pid": "1020",
        "name": "บางกอกน้อย",
        "changwat_pid": "10"
      },
      {
        "pid": "1021",
        "name": "บางขุนเทียน",
        "changwat_pid": "10"
      },
      {
        "pid": "1022",
        "name": "ภาษีเจริญ",
        "changwat_pid": "10"
      },
      {
        "pid": "1023",
        "name": "หนองแขม",
        "changwat_pid": "10"
      },
      {
        "pid": "1024",
        "name": "ราษฎร์บูรณะ",
        "changwat_pid": "10"
      },
      {
        "pid": "1025",
        "name": "บางพลัด",
        "changwat_pid": "10"
      },
      {
        "pid": "1026",
        "name": "ดินแดง",
        "changwat_pid": "10"
      },
      {
        "pid": "1027",
        "name": "บึงกุ่ม",
        "changwat_pid": "10"
      },
      {
        "pid": "1028",
        "name": "สาทร",
        "changwat_pid": "10"
      },
      {
        "pid": "1029",
        "name": "บางซื่อ",
        "changwat_pid": "10"
      },
      {
        "pid": "1030",
        "name": "จตุจักร",
        "changwat_pid": "10"
      },
      {
        "pid": "1031",
        "name": "บางคอแหลม",
        "changwat_pid": "10"
      },
      {
        "pid": "1032",
        "name": "ประเวศ",
        "changwat_pid": "10"
      },
      {
        "pid": "1033",
        "name": "คลองเตย",
        "changwat_pid": "10"
      },
      {
        "pid": "1034",
        "name": "สวนหลวง",
        "changwat_pid": "10"
      },
      {
        "pid": "1035",
        "name": "จอมทอง",
        "changwat_pid": "10"
      },
      {
        "pid": "1036",
        "name": "ดอนเมือง",
        "changwat_pid": "10"
      },
      {
        "pid": "1037",
        "name": "ราชเทวี",
        "changwat_pid": "10"
      },
      {
        "pid": "1038",
        "name": "ลาดพร้าว",
        "changwat_pid": "10"
      },
      {
        "pid": "1039",
        "name": "วัฒนา",
        "changwat_pid": "10"
      },
      {
        "pid": "1040",
        "name": "บางแค",
        "changwat_pid": "10"
      },
      {
        "pid": "1041",
        "name": "หลักสี่",
        "changwat_pid": "10"
      },
      {
        "pid": "1042",
        "name": "สายไหม",
        "changwat_pid": "10"
      },
      {
        "pid": "1043",
        "name": "คันนายาว",
        "changwat_pid": "10"
      },
      {
        "pid": "1044",
        "name": "สะพานสูง",
        "changwat_pid": "10"
      },
      {
        "pid": "1045",
        "name": "วังทองหลาง",
        "changwat_pid": "10"
      },
      {
        "pid": "1046",
        "name": "คลองสามวา",
        "changwat_pid": "10"
      },
      {
        "pid": "1047",
        "name": "บางนา",
        "changwat_pid": "10"
      },
      {
        "pid": "1048",
        "name": "ทวีวัฒนา",
        "changwat_pid": "10"
      },
      {
        "pid": "1049",
        "name": "ทุ่งครุ",
        "changwat_pid": "10"
      },
      {
        "pid": "1050",
        "name": "บางบอน",
        "changwat_pid": "10"
      },
      {
        "pid": "1101",
        "name": "เมืองสมุทรปราการ",
        "changwat_pid": "11"
      },
      {
        "pid": "1102",
        "name": "บางบ่อ",
        "changwat_pid": "11"
      },
      {
        "pid": "1103",
        "name": "บางพลี",
        "changwat_pid": "11"
      },
      {
        "pid": "1104",
        "name": "พระประแดง",
        "changwat_pid": "11"
      },
      {
        "pid": "1105",
        "name": "พระสมุทรเจดีย์",
        "changwat_pid": "11"
      },
      {
        "pid": "1106",
        "name": "บางเสาธง",
        "changwat_pid": "11"
      },
      {
        "pid": "1201",
        "name": "เมืองนนทบุรี",
        "changwat_pid": "12"
      },
      {
        "pid": "1202",
        "name": "บางกรวย",
        "changwat_pid": "12"
      },
      {
        "pid": "1203",
        "name": "บางใหญ่",
        "changwat_pid": "12"
      },
      {
        "pid": "1204",
        "name": "บางบัวทอง",
        "changwat_pid": "12"
      },
      {
        "pid": "1205",
        "name": "ไทรน้อย",
        "changwat_pid": "12"
      },
      {
        "pid": "1206",
        "name": "ปากเกร็ด",
        "changwat_pid": "12"
      },
      {
        "pid": "1301",
        "name": "เมืองปทุมธานี",
        "changwat_pid": "13"
      },
      {
        "pid": "1302",
        "name": "คลองหลวง",
        "changwat_pid": "13"
      },
      {
        "pid": "1303",
        "name": "ธัญบุรี",
        "changwat_pid": "13"
      },
      {
        "pid": "1304",
        "name": "หนองเสือ",
        "changwat_pid": "13"
      },
      {
        "pid": "1305",
        "name": "ลาดหลุมแก้ว",
        "changwat_pid": "13"
      },
      {
        "pid": "1306",
        "name": "ลำลูกกา",
        "changwat_pid": "13"
      },
      {
        "pid": "1307",
        "name": "สามโคก",
        "changwat_pid": "13"
      },
      {
        "pid": "1401",
        "name": "พระนครศรีอยุธยา",
        "changwat_pid": "14"
      },
      {
        "pid": "1402",
        "name": "ท่าเรือ",
        "changwat_pid": "14"
      },
      {
        "pid": "1403",
        "name": "นครหลวง",
        "changwat_pid": "14"
      },
      {
        "pid": "1404",
        "name": "บางไทร",
        "changwat_pid": "14"
      },
      {
        "pid": "1405",
        "name": "บางบาล",
        "changwat_pid": "14"
      },
      {
        "pid": "1406",
        "name": "บางปะอิน",
        "changwat_pid": "14"
      },
      {
        "pid": "1407",
        "name": "บางปะหัน",
        "changwat_pid": "14"
      },
      {
        "pid": "1408",
        "name": "ผักไห่",
        "changwat_pid": "14"
      },
      {
        "pid": "1409",
        "name": "ภาชี",
        "changwat_pid": "14"
      },
      {
        "pid": "1410",
        "name": "ลาดบัวหลวง",
        "changwat_pid": "14"
      },
      {
        "pid": "1411",
        "name": "วังน้อย",
        "changwat_pid": "14"
      },
      {
        "pid": "1412",
        "name": "เสนา",
        "changwat_pid": "14"
      },
      {
        "pid": "1413",
        "name": "บางซ้าย",
        "changwat_pid": "14"
      },
      {
        "pid": "1414",
        "name": "อุทัย",
        "changwat_pid": "14"
      },
      {
        "pid": "1415",
        "name": "มหาราช",
        "changwat_pid": "14"
      },
      {
        "pid": "1416",
        "name": "บ้านแพรก",
        "changwat_pid": "14"
      },
      {
        "pid": "1501",
        "name": "เมืองอ่างทอง",
        "changwat_pid": "15"
      },
      {
        "pid": "1502",
        "name": "ไชโย",
        "changwat_pid": "15"
      },
      {
        "pid": "1503",
        "name": "ป่าโมก",
        "changwat_pid": "15"
      },
      {
        "pid": "1504",
        "name": "โพธิ์ทอง",
        "changwat_pid": "15"
      },
      {
        "pid": "1505",
        "name": "แสวงหา",
        "changwat_pid": "15"
      },
      {
        "pid": "1506",
        "name": "วิเศษชัยชาญ",
        "changwat_pid": "15"
      },
      {
        "pid": "1507",
        "name": "สามโก้",
        "changwat_pid": "15"
      },
      {
        "pid": "1601",
        "name": "เมืองลพบุรี",
        "changwat_pid": "16"
      },
      {
        "pid": "1602",
        "name": "พัฒนานิคม",
        "changwat_pid": "16"
      },
      {
        "pid": "1603",
        "name": "โคกสำโรง",
        "changwat_pid": "16"
      },
      {
        "pid": "1604",
        "name": "ชัยบาดาล",
        "changwat_pid": "16"
      },
      {
        "pid": "1605",
        "name": "ท่าวุ้ง",
        "changwat_pid": "16"
      },
      {
        "pid": "1606",
        "name": "บ้านหมี่",
        "changwat_pid": "16"
      },
      {
        "pid": "1607",
        "name": "ท่าหลวง",
        "changwat_pid": "16"
      },
      {
        "pid": "1608",
        "name": "สระโบสถ์",
        "changwat_pid": "16"
      },
      {
        "pid": "1609",
        "name": "โคกเจริญ",
        "changwat_pid": "16"
      },
      {
        "pid": "1610",
        "name": "ลำสนธิ",
        "changwat_pid": "16"
      },
      {
        "pid": "1611",
        "name": "หนองม่วง",
        "changwat_pid": "16"
      },
      {
        "pid": "1701",
        "name": "เมืองสิงห์บุรี",
        "changwat_pid": "17"
      },
      {
        "pid": "1702",
        "name": "บางระจัน",
        "changwat_pid": "17"
      },
      {
        "pid": "1703",
        "name": "ค่ายบางระจัน",
        "changwat_pid": "17"
      },
      {
        "pid": "1704",
        "name": "พรหมบุรี",
        "changwat_pid": "17"
      },
      {
        "pid": "1705",
        "name": "ท่าช้าง",
        "changwat_pid": "17"
      },
      {
        "pid": "1706",
        "name": "อินทร์บุรี",
        "changwat_pid": "17"
      },
      {
        "pid": "1801",
        "name": "เมืองชัยนาท",
        "changwat_pid": "18"
      },
      {
        "pid": "1802",
        "name": "มโนรมย์",
        "changwat_pid": "18"
      },
      {
        "pid": "1803",
        "name": "วัดสิงห์",
        "changwat_pid": "18"
      },
      {
        "pid": "1804",
        "name": "สรรพยา",
        "changwat_pid": "18"
      },
      {
        "pid": "1805",
        "name": "สรรคบุรี",
        "changwat_pid": "18"
      },
      {
        "pid": "1806",
        "name": "หันคา",
        "changwat_pid": "18"
      },
      {
        "pid": "1807",
        "name": "หนองมะโมง",
        "changwat_pid": "18"
      },
      {
        "pid": "1808",
        "name": "เนินขาม",
        "changwat_pid": "18"
      },
      {
        "pid": "1901",
        "name": "เมืองสระบุรี",
        "changwat_pid": "19"
      },
      {
        "pid": "1902",
        "name": "แก่งคอย",
        "changwat_pid": "19"
      },
      {
        "pid": "1903",
        "name": "หนองแค",
        "changwat_pid": "19"
      },
      {
        "pid": "1904",
        "name": "วิหารแดง",
        "changwat_pid": "19"
      },
      {
        "pid": "1905",
        "name": "หนองแซง",
        "changwat_pid": "19"
      },
      {
        "pid": "1906",
        "name": "บ้านหมอ",
        "changwat_pid": "19"
      },
      {
        "pid": "1907",
        "name": "ดอนพุด",
        "changwat_pid": "19"
      },
      {
        "pid": "1908",
        "name": "หนองโดน",
        "changwat_pid": "19"
      },
      {
        "pid": "1909",
        "name": "พระพุทธบาท",
        "changwat_pid": "19"
      },
      {
        "pid": "1910",
        "name": "เสาไห้",
        "changwat_pid": "19"
      },
      {
        "pid": "1911",
        "name": "มวกเหล็ก",
        "changwat_pid": "19"
      },
      {
        "pid": "1912",
        "name": "วังม่วง",
        "changwat_pid": "19"
      },
      {
        "pid": "1913",
        "name": "เฉลิมพระเกียรติ",
        "changwat_pid": "19"
      },
      {
        "pid": "2001",
        "name": "เมืองชลบุรี",
        "changwat_pid": "20"
      },
      {
        "pid": "2002",
        "name": "บ้านบึง",
        "changwat_pid": "20"
      },
      {
        "pid": "2003",
        "name": "หนองใหญ่",
        "changwat_pid": "20"
      },
      {
        "pid": "2004",
        "name": "บางละมุง",
        "changwat_pid": "20"
      },
      {
        "pid": "2005",
        "name": "พานทอง",
        "changwat_pid": "20"
      },
      {
        "pid": "2006",
        "name": "พนัสนิคม",
        "changwat_pid": "20"
      },
      {
        "pid": "2007",
        "name": "ศรีราชา",
        "changwat_pid": "20"
      },
      {
        "pid": "2008",
        "name": "เกาะสีชัง",
        "changwat_pid": "20"
      },
      {
        "pid": "2009",
        "name": "สัตหีบ",
        "changwat_pid": "20"
      },
      {
        "pid": "2010",
        "name": "บ่อทอง",
        "changwat_pid": "20"
      },
      {
        "pid": "2011",
        "name": "เกาะจันทร์",
        "changwat_pid": "20"
      },
      {
        "pid": "2101",
        "name": "เมืองระยอง",
        "changwat_pid": "21"
      },
      {
        "pid": "2102",
        "name": "บ้านฉาง",
        "changwat_pid": "21"
      },
      {
        "pid": "2103",
        "name": "แกลง",
        "changwat_pid": "21"
      },
      {
        "pid": "2104",
        "name": "วังจันทร์",
        "changwat_pid": "21"
      },
      {
        "pid": "2105",
        "name": "บ้านค่าย",
        "changwat_pid": "21"
      },
      {
        "pid": "2106",
        "name": "ปลวกแดง",
        "changwat_pid": "21"
      },
      {
        "pid": "2107",
        "name": "เขาชะเมา",
        "changwat_pid": "21"
      },
      {
        "pid": "2108",
        "name": "นิคมพัฒนา",
        "changwat_pid": "21"
      },
      {
        "pid": "2201",
        "name": "เมืองจันทบุรี",
        "changwat_pid": "22"
      },
      {
        "pid": "2202",
        "name": "ขลุง",
        "changwat_pid": "22"
      },
      {
        "pid": "2203",
        "name": "ท่าใหม่",
        "changwat_pid": "22"
      },
      {
        "pid": "2204",
        "name": "โป่งน้ำร้อน",
        "changwat_pid": "22"
      },
      {
        "pid": "2205",
        "name": "มะขาม",
        "changwat_pid": "22"
      },
      {
        "pid": "2206",
        "name": "แหลมสิงห์",
        "changwat_pid": "22"
      },
      {
        "pid": "2207",
        "name": "สอยดาว",
        "changwat_pid": "22"
      },
      {
        "pid": "2208",
        "name": "แก่งหางแมว",
        "changwat_pid": "22"
      },
      {
        "pid": "2209",
        "name": "นายายอาม",
        "changwat_pid": "22"
      },
      {
        "pid": "2210",
        "name": "เขาคิชฌกูฏ",
        "changwat_pid": "22"
      },
      {
        "pid": "2301",
        "name": "เมืองตราด",
        "changwat_pid": "23"
      },
      {
        "pid": "2302",
        "name": "คลองใหญ่",
        "changwat_pid": "23"
      },
      {
        "pid": "2303",
        "name": "เขาสมิง",
        "changwat_pid": "23"
      },
      {
        "pid": "2304",
        "name": "บ่อไร่",
        "changwat_pid": "23"
      },
      {
        "pid": "2305",
        "name": "แหลมงอบ",
        "changwat_pid": "23"
      },
      {
        "pid": "2306",
        "name": "เกาะกูด",
        "changwat_pid": "23"
      },
      {
        "pid": "2307",
        "name": "เกาะช้าง",
        "changwat_pid": "23"
      },
      {
        "pid": "2401",
        "name": "เมืองฉะเชิงเทรา",
        "changwat_pid": "24"
      },
      {
        "pid": "2402",
        "name": "บางคล้า",
        "changwat_pid": "24"
      },
      {
        "pid": "2403",
        "name": "บางน้ำเปรี้ยว",
        "changwat_pid": "24"
      },
      {
        "pid": "2404",
        "name": "บางปะกง",
        "changwat_pid": "24"
      },
      {
        "pid": "2405",
        "name": "บ้านโพธิ์",
        "changwat_pid": "24"
      },
      {
        "pid": "2406",
        "name": "พนมสารคาม",
        "changwat_pid": "24"
      },
      {
        "pid": "2407",
        "name": "ราชสาส์น",
        "changwat_pid": "24"
      },
      {
        "pid": "2408",
        "name": "สนามชัยเขต",
        "changwat_pid": "24"
      },
      {
        "pid": "2409",
        "name": "แปลงยาว",
        "changwat_pid": "24"
      },
      {
        "pid": "2410",
        "name": "ท่าตะเกียบ",
        "changwat_pid": "24"
      },
      {
        "pid": "2411",
        "name": "คลองเขื่อน",
        "changwat_pid": "24"
      },
      {
        "pid": "2501",
        "name": "เมืองปราจีนบุรี",
        "changwat_pid": "25"
      },
      {
        "pid": "2502",
        "name": "กบินทร์บุรี",
        "changwat_pid": "25"
      },
      {
        "pid": "2503",
        "name": "นาดี",
        "changwat_pid": "25"
      },
      {
        "pid": "2506",
        "name": "บ้านสร้าง",
        "changwat_pid": "25"
      },
      {
        "pid": "2507",
        "name": "ประจันตคาม",
        "changwat_pid": "25"
      },
      {
        "pid": "2508",
        "name": "ศรีมหาโพธิ",
        "changwat_pid": "25"
      },
      {
        "pid": "2509",
        "name": "ศรีมโหสถ",
        "changwat_pid": "25"
      },
      {
        "pid": "2601",
        "name": "เมืองนครนายก",
        "changwat_pid": "26"
      },
      {
        "pid": "2602",
        "name": "ปากพลี",
        "changwat_pid": "26"
      },
      {
        "pid": "2603",
        "name": "บ้านนา",
        "changwat_pid": "26"
      },
      {
        "pid": "2604",
        "name": "องครักษ์",
        "changwat_pid": "26"
      },
      {
        "pid": "2701",
        "name": "เมืองสระแก้ว",
        "changwat_pid": "27"
      },
      {
        "pid": "2702",
        "name": "คลองหาด",
        "changwat_pid": "27"
      },
      {
        "pid": "2703",
        "name": "ตาพระยา",
        "changwat_pid": "27"
      },
      {
        "pid": "2704",
        "name": "วังน้ำเย็น",
        "changwat_pid": "27"
      },
      {
        "pid": "2705",
        "name": "วัฒนานคร",
        "changwat_pid": "27"
      },
      {
        "pid": "2706",
        "name": "อรัญประเทศ",
        "changwat_pid": "27"
      },
      {
        "pid": "2707",
        "name": "เขาฉกรรจ์",
        "changwat_pid": "27"
      },
      {
        "pid": "2708",
        "name": "โคกสูง",
        "changwat_pid": "27"
      },
      {
        "pid": "2709",
        "name": "วังสมบูรณ์",
        "changwat_pid": "27"
      },
      {
        "pid": "3001",
        "name": "เมืองนครราชสีมา",
        "changwat_pid": "30"
      },
      {
        "pid": "3002",
        "name": "ครบุรี",
        "changwat_pid": "30"
      },
      {
        "pid": "3003",
        "name": "เสิงสาง",
        "changwat_pid": "30"
      },
      {
        "pid": "3004",
        "name": "คง",
        "changwat_pid": "30"
      },
      {
        "pid": "3005",
        "name": "บ้านเหลื่อม",
        "changwat_pid": "30"
      },
      {
        "pid": "3006",
        "name": "จักราช",
        "changwat_pid": "30"
      },
      {
        "pid": "3007",
        "name": "โชคชัย",
        "changwat_pid": "30"
      },
      {
        "pid": "3008",
        "name": "ด่านขุนทด",
        "changwat_pid": "30"
      },
      {
        "pid": "3009",
        "name": "โนนไทย",
        "changwat_pid": "30"
      },
      {
        "pid": "3010",
        "name": "โนนสูง",
        "changwat_pid": "30"
      },
      {
        "pid": "3011",
        "name": "ขามสะแกแสง",
        "changwat_pid": "30"
      },
      {
        "pid": "3012",
        "name": "บัวใหญ่",
        "changwat_pid": "30"
      },
      {
        "pid": "3013",
        "name": "ประทาย",
        "changwat_pid": "30"
      },
      {
        "pid": "3014",
        "name": "ปักธงชัย",
        "changwat_pid": "30"
      },
      {
        "pid": "3015",
        "name": "พิมาย",
        "changwat_pid": "30"
      },
      {
        "pid": "3016",
        "name": "ห้วยแถลง",
        "changwat_pid": "30"
      },
      {
        "pid": "3017",
        "name": "ชุมพวง",
        "changwat_pid": "30"
      },
      {
        "pid": "3018",
        "name": "สูงเนิน",
        "changwat_pid": "30"
      },
      {
        "pid": "3019",
        "name": "ขามทะเลสอ",
        "changwat_pid": "30"
      },
      {
        "pid": "3020",
        "name": "สีคิ้ว",
        "changwat_pid": "30"
      },
      {
        "pid": "3021",
        "name": "ปากช่อง",
        "changwat_pid": "30"
      },
      {
        "pid": "3022",
        "name": "หนองบุญมาก",
        "changwat_pid": "30"
      },
      {
        "pid": "3023",
        "name": "แก้งสนามนาง",
        "changwat_pid": "30"
      },
      {
        "pid": "3024",
        "name": "โนนแดง",
        "changwat_pid": "30"
      },
      {
        "pid": "3025",
        "name": "วังน้ำเขียว",
        "changwat_pid": "30"
      },
      {
        "pid": "3026",
        "name": "เทพารักษ์",
        "changwat_pid": "30"
      },
      {
        "pid": "3027",
        "name": "เมืองยาง",
        "changwat_pid": "30"
      },
      {
        "pid": "3028",
        "name": "พระทองคำ",
        "changwat_pid": "30"
      },
      {
        "pid": "3029",
        "name": "ลำทะเมนชัย",
        "changwat_pid": "30"
      },
      {
        "pid": "3030",
        "name": "บัวลาย",
        "changwat_pid": "30"
      },
      {
        "pid": "3031",
        "name": "สีดา",
        "changwat_pid": "30"
      },
      {
        "pid": "3032",
        "name": "เฉลิมพระเกียรติ",
        "changwat_pid": "30"
      },
      {
        "pid": "3101",
        "name": "เมืองบุรีรัมย์",
        "changwat_pid": "31"
      },
      {
        "pid": "3102",
        "name": "คูเมือง",
        "changwat_pid": "31"
      },
      {
        "pid": "3103",
        "name": "กระสัง",
        "changwat_pid": "31"
      },
      {
        "pid": "3104",
        "name": "นางรอง",
        "changwat_pid": "31"
      },
      {
        "pid": "3105",
        "name": "หนองกี่",
        "changwat_pid": "31"
      },
      {
        "pid": "3106",
        "name": "ละหานทราย",
        "changwat_pid": "31"
      },
      {
        "pid": "3107",
        "name": "ประโคนชัย",
        "changwat_pid": "31"
      },
      {
        "pid": "3108",
        "name": "บ้านกรวด",
        "changwat_pid": "31"
      },
      {
        "pid": "3109",
        "name": "พุทไธสง",
        "changwat_pid": "31"
      },
      {
        "pid": "3110",
        "name": "ลำปลายมาศ",
        "changwat_pid": "31"
      },
      {
        "pid": "3111",
        "name": "สตึก",
        "changwat_pid": "31"
      },
      {
        "pid": "3112",
        "name": "ปะคำ",
        "changwat_pid": "31"
      },
      {
        "pid": "3113",
        "name": "นาโพธิ์",
        "changwat_pid": "31"
      },
      {
        "pid": "3114",
        "name": "หนองหงส์",
        "changwat_pid": "31"
      },
      {
        "pid": "3115",
        "name": "พลับพลาชัย",
        "changwat_pid": "31"
      },
      {
        "pid": "3116",
        "name": "ห้วยราช",
        "changwat_pid": "31"
      },
      {
        "pid": "3117",
        "name": "โนนสุวรรณ",
        "changwat_pid": "31"
      },
      {
        "pid": "3118",
        "name": "ชำนิ",
        "changwat_pid": "31"
      },
      {
        "pid": "3119",
        "name": "บ้านใหม่ไชยพจน์",
        "changwat_pid": "31"
      },
      {
        "pid": "3120",
        "name": "โนนดินแดง",
        "changwat_pid": "31"
      },
      {
        "pid": "3121",
        "name": "บ้านด่าน",
        "changwat_pid": "31"
      },
      {
        "pid": "3122",
        "name": "แคนดง",
        "changwat_pid": "31"
      },
      {
        "pid": "3123",
        "name": "เฉลิมพระเกียรติ",
        "changwat_pid": "31"
      },
      {
        "pid": "3201",
        "name": "เมืองสุรินทร์",
        "changwat_pid": "32"
      },
      {
        "pid": "3202",
        "name": "ชุมพลบุรี",
        "changwat_pid": "32"
      },
      {
        "pid": "3203",
        "name": "ท่าตูม",
        "changwat_pid": "32"
      },
      {
        "pid": "3204",
        "name": "จอมพระ",
        "changwat_pid": "32"
      },
      {
        "pid": "3205",
        "name": "ปราสาท",
        "changwat_pid": "32"
      },
      {
        "pid": "3206",
        "name": "กาบเชิง",
        "changwat_pid": "32"
      },
      {
        "pid": "3207",
        "name": "รัตนบุรี",
        "changwat_pid": "32"
      },
      {
        "pid": "3208",
        "name": "สนม",
        "changwat_pid": "32"
      },
      {
        "pid": "3209",
        "name": "ศีขรภูมิ",
        "changwat_pid": "32"
      },
      {
        "pid": "3210",
        "name": "สังขะ",
        "changwat_pid": "32"
      },
      {
        "pid": "3211",
        "name": "ลำดวน",
        "changwat_pid": "32"
      },
      {
        "pid": "3212",
        "name": "สำโรงทาบ",
        "changwat_pid": "32"
      },
      {
        "pid": "3213",
        "name": "บัวเชด",
        "changwat_pid": "32"
      },
      {
        "pid": "3214",
        "name": "พนมดงรัก",
        "changwat_pid": "32"
      },
      {
        "pid": "3215",
        "name": "ศรีณรงค์",
        "changwat_pid": "32"
      },
      {
        "pid": "3216",
        "name": "เขวาสินรินทร์",
        "changwat_pid": "32"
      },
      {
        "pid": "3217",
        "name": "โนนนารายณ์",
        "changwat_pid": "32"
      },
      {
        "pid": "3301",
        "name": "เมืองศรีสะเกษ",
        "changwat_pid": "33"
      },
      {
        "pid": "3302",
        "name": "ยางชุมน้อย",
        "changwat_pid": "33"
      },
      {
        "pid": "3303",
        "name": "กันทรารมย์",
        "changwat_pid": "33"
      },
      {
        "pid": "3304",
        "name": "กันทรลักษ์",
        "changwat_pid": "33"
      },
      {
        "pid": "3305",
        "name": "ขุขันธ์",
        "changwat_pid": "33"
      },
      {
        "pid": "3306",
        "name": "ไพรบึง",
        "changwat_pid": "33"
      },
      {
        "pid": "3307",
        "name": "ปรางค์กู่",
        "changwat_pid": "33"
      },
      {
        "pid": "3308",
        "name": "ขุนหาญ",
        "changwat_pid": "33"
      },
      {
        "pid": "3309",
        "name": "ราษีไศล",
        "changwat_pid": "33"
      },
      {
        "pid": "3310",
        "name": "อุทุมพรพิสัย",
        "changwat_pid": "33"
      },
      {
        "pid": "3311",
        "name": "บึงบูรพ์",
        "changwat_pid": "33"
      },
      {
        "pid": "3312",
        "name": "ห้วยทับทัน",
        "changwat_pid": "33"
      },
      {
        "pid": "3313",
        "name": "โนนคูณ",
        "changwat_pid": "33"
      },
      {
        "pid": "3314",
        "name": "ศรีรัตนะ",
        "changwat_pid": "33"
      },
      {
        "pid": "3315",
        "name": "น้ำเกลี้ยง",
        "changwat_pid": "33"
      },
      {
        "pid": "3316",
        "name": "วังหิน",
        "changwat_pid": "33"
      },
      {
        "pid": "3317",
        "name": "ภูสิงห์",
        "changwat_pid": "33"
      },
      {
        "pid": "3318",
        "name": "เมืองจันทร์",
        "changwat_pid": "33"
      },
      {
        "pid": "3319",
        "name": "เบญจลักษ์",
        "changwat_pid": "33"
      },
      {
        "pid": "3320",
        "name": "พยุห์",
        "changwat_pid": "33"
      },
      {
        "pid": "3321",
        "name": "โพธิ์ศรีสุวรรณ",
        "changwat_pid": "33"
      },
      {
        "pid": "3322",
        "name": "ศิลาลาด",
        "changwat_pid": "33"
      },
      {
        "pid": "3401",
        "name": "เมืองอุบลราชธานี",
        "changwat_pid": "34"
      },
      {
        "pid": "3402",
        "name": "ศรีเมืองใหม่",
        "changwat_pid": "34"
      },
      {
        "pid": "3403",
        "name": "โขงเจียม",
        "changwat_pid": "34"
      },
      {
        "pid": "3404",
        "name": "เขื่องใน",
        "changwat_pid": "34"
      },
      {
        "pid": "3405",
        "name": "เขมราฐ",
        "changwat_pid": "34"
      },
      {
        "pid": "3407",
        "name": "เดชอุดม",
        "changwat_pid": "34"
      },
      {
        "pid": "3408",
        "name": "นาจะหลวย",
        "changwat_pid": "34"
      },
      {
        "pid": "3409",
        "name": "น้ำยืน",
        "changwat_pid": "34"
      },
      {
        "pid": "3410",
        "name": "บุณฑริก",
        "changwat_pid": "34"
      },
      {
        "pid": "3411",
        "name": "ตระการพืชผล",
        "changwat_pid": "34"
      },
      {
        "pid": "3412",
        "name": "กุดข้าวปุ้น",
        "changwat_pid": "34"
      },
      {
        "pid": "3414",
        "name": "ม่วงสามสิบ",
        "changwat_pid": "34"
      },
      {
        "pid": "3415",
        "name": "วารินชำราบ",
        "changwat_pid": "34"
      },
      {
        "pid": "3419",
        "name": "พิบูลมังสาหาร",
        "changwat_pid": "34"
      },
      {
        "pid": "3420",
        "name": "ตาลสุม",
        "changwat_pid": "34"
      },
      {
        "pid": "3421",
        "name": "โพธิ์ไทร",
        "changwat_pid": "34"
      },
      {
        "pid": "3422",
        "name": "สำโรง",
        "changwat_pid": "34"
      },
      {
        "pid": "3424",
        "name": "ดอนมดแดง",
        "changwat_pid": "34"
      },
      {
        "pid": "3425",
        "name": "สิรินธร",
        "changwat_pid": "34"
      },
      {
        "pid": "3426",
        "name": "ทุ่งศรีอุดม",
        "changwat_pid": "34"
      },
      {
        "pid": "3429",
        "name": "นาเยีย",
        "changwat_pid": "34"
      },
      {
        "pid": "3430",
        "name": "นาตาล",
        "changwat_pid": "34"
      },
      {
        "pid": "3431",
        "name": "เหล่าเสือโก้ก",
        "changwat_pid": "34"
      },
      {
        "pid": "3432",
        "name": "สว่างวีระวงศ์",
        "changwat_pid": "34"
      },
      {
        "pid": "3433",
        "name": "น้ำขุ่น",
        "changwat_pid": "34"
      },
      {
        "pid": "3501",
        "name": "เมืองยโสธร",
        "changwat_pid": "35"
      },
      {
        "pid": "3502",
        "name": "ทรายมูล",
        "changwat_pid": "35"
      },
      {
        "pid": "3503",
        "name": "กุดชุม",
        "changwat_pid": "35"
      },
      {
        "pid": "3504",
        "name": "คำเขื่อนแก้ว",
        "changwat_pid": "35"
      },
      {
        "pid": "3505",
        "name": "ป่าติ้ว",
        "changwat_pid": "35"
      },
      {
        "pid": "3506",
        "name": "มหาชนะชัย",
        "changwat_pid": "35"
      },
      {
        "pid": "3507",
        "name": "ค้อวัง",
        "changwat_pid": "35"
      },
      {
        "pid": "3508",
        "name": "เลิงนกทา",
        "changwat_pid": "35"
      },
      {
        "pid": "3509",
        "name": "ไทยเจริญ",
        "changwat_pid": "35"
      },
      {
        "pid": "3601",
        "name": "เมืองชัยภูมิ",
        "changwat_pid": "36"
      },
      {
        "pid": "3602",
        "name": "บ้านเขว้า",
        "changwat_pid": "36"
      },
      {
        "pid": "3603",
        "name": "คอนสวรรค์",
        "changwat_pid": "36"
      },
      {
        "pid": "3604",
        "name": "เกษตรสมบูรณ์",
        "changwat_pid": "36"
      },
      {
        "pid": "3605",
        "name": "หนองบัวแดง",
        "changwat_pid": "36"
      },
      {
        "pid": "3606",
        "name": "จัตุรัส",
        "changwat_pid": "36"
      },
      {
        "pid": "3607",
        "name": "บำเหน็จณรงค์",
        "changwat_pid": "36"
      },
      {
        "pid": "3608",
        "name": "หนองบัวระเหว",
        "changwat_pid": "36"
      },
      {
        "pid": "3609",
        "name": "เทพสถิต",
        "changwat_pid": "36"
      },
      {
        "pid": "3610",
        "name": "ภูเขียว",
        "changwat_pid": "36"
      },
      {
        "pid": "3611",
        "name": "บ้านแท่น",
        "changwat_pid": "36"
      },
      {
        "pid": "3612",
        "name": "แก้งคร้อ",
        "changwat_pid": "36"
      },
      {
        "pid": "3613",
        "name": "คอนสาร",
        "changwat_pid": "36"
      },
      {
        "pid": "3614",
        "name": "ภักดีชุมพล",
        "changwat_pid": "36"
      },
      {
        "pid": "3615",
        "name": "เนินสง่า",
        "changwat_pid": "36"
      },
      {
        "pid": "3616",
        "name": "ซับใหญ่",
        "changwat_pid": "36"
      },
      {
        "pid": "3701",
        "name": "เมืองอำนาจเจริญ",
        "changwat_pid": "37"
      },
      {
        "pid": "3702",
        "name": "ชานุมาน",
        "changwat_pid": "37"
      },
      {
        "pid": "3703",
        "name": "ปทุมราชวงศา",
        "changwat_pid": "37"
      },
      {
        "pid": "3704",
        "name": "พนา",
        "changwat_pid": "37"
      },
      {
        "pid": "3705",
        "name": "เสนางคนิคม",
        "changwat_pid": "37"
      },
      {
        "pid": "3706",
        "name": "หัวตะพาน",
        "changwat_pid": "37"
      },
      {
        "pid": "3707",
        "name": "ลืออำนาจ",
        "changwat_pid": "37"
      },
      {
        "pid": "3801",
        "name": "บึงกาฬ",
        "changwat_pid": "38"
      },
      {
        "pid": "3802",
        "name": "พรเจริญ",
        "changwat_pid": "38"
      },
      {
        "pid": "3803",
        "name": "โซ่พิสัย",
        "changwat_pid": "38"
      },
      {
        "pid": "3804",
        "name": "เซกา",
        "changwat_pid": "38"
      },
      {
        "pid": "3805",
        "name": "ปากคาด",
        "changwat_pid": "38"
      },
      {
        "pid": "3806",
        "name": "บึงโขงหลง",
        "changwat_pid": "38"
      },
      {
        "pid": "3807",
        "name": "ศรีวิไล",
        "changwat_pid": "38"
      },
      {
        "pid": "3808",
        "name": "บุ่งคล้า",
        "changwat_pid": "38"
      },
      {
        "pid": "3901",
        "name": "เมืองหนองบัวลำภู",
        "changwat_pid": "39"
      },
      {
        "pid": "3902",
        "name": "นากลาง",
        "changwat_pid": "39"
      },
      {
        "pid": "3903",
        "name": "โนนสัง",
        "changwat_pid": "39"
      },
      {
        "pid": "3904",
        "name": "ศรีบุญเรือง",
        "changwat_pid": "39"
      },
      {
        "pid": "3905",
        "name": "สุวรรณคูหา",
        "changwat_pid": "39"
      },
      {
        "pid": "3906",
        "name": "นาวัง",
        "changwat_pid": "39"
      },
      {
        "pid": "4001",
        "name": "เมืองขอนแก่น",
        "changwat_pid": "40"
      },
      {
        "pid": "4002",
        "name": "บ้านฝาง",
        "changwat_pid": "40"
      },
      {
        "pid": "4003",
        "name": "พระยืน",
        "changwat_pid": "40"
      },
      {
        "pid": "4004",
        "name": "หนองเรือ",
        "changwat_pid": "40"
      },
      {
        "pid": "4005",
        "name": "ชุมแพ",
        "changwat_pid": "40"
      },
      {
        "pid": "4006",
        "name": "สีชมพู",
        "changwat_pid": "40"
      },
      {
        "pid": "4007",
        "name": "น้ำพอง",
        "changwat_pid": "40"
      },
      {
        "pid": "4008",
        "name": "อุบลรัตน์",
        "changwat_pid": "40"
      },
      {
        "pid": "4009",
        "name": "กระนวน",
        "changwat_pid": "40"
      },
      {
        "pid": "4010",
        "name": "บ้านไผ่",
        "changwat_pid": "40"
      },
      {
        "pid": "4011",
        "name": "เปือยน้อย",
        "changwat_pid": "40"
      },
      {
        "pid": "4012",
        "name": "พล",
        "changwat_pid": "40"
      },
      {
        "pid": "4013",
        "name": "แวงใหญ่",
        "changwat_pid": "40"
      },
      {
        "pid": "4014",
        "name": "แวงน้อย",
        "changwat_pid": "40"
      },
      {
        "pid": "4015",
        "name": "หนองสองห้อง",
        "changwat_pid": "40"
      },
      {
        "pid": "4016",
        "name": "ภูเวียง",
        "changwat_pid": "40"
      },
      {
        "pid": "4017",
        "name": "มัญจาคีรี",
        "changwat_pid": "40"
      },
      {
        "pid": "4018",
        "name": "ชนบท",
        "changwat_pid": "40"
      },
      {
        "pid": "4019",
        "name": "เขาสวนกวาง",
        "changwat_pid": "40"
      },
      {
        "pid": "4020",
        "name": "ภูผาม่าน",
        "changwat_pid": "40"
      },
      {
        "pid": "4021",
        "name": "ซำสูง",
        "changwat_pid": "40"
      },
      {
        "pid": "4022",
        "name": "โคกโพธิ์ไชย",
        "changwat_pid": "40"
      },
      {
        "pid": "4023",
        "name": "หนองนาคำ",
        "changwat_pid": "40"
      },
      {
        "pid": "4024",
        "name": "บ้านแฮด",
        "changwat_pid": "40"
      },
      {
        "pid": "4025",
        "name": "โนนศิลา",
        "changwat_pid": "40"
      },
      {
        "pid": "4026",
        "name": "เวียงเก่า",
        "changwat_pid": "40"
      },
      {
        "pid": "4101",
        "name": "เมืองอุดรธานี",
        "changwat_pid": "41"
      },
      {
        "pid": "4102",
        "name": "กุดจับ",
        "changwat_pid": "41"
      },
      {
        "pid": "4103",
        "name": "หนองวัวซอ",
        "changwat_pid": "41"
      },
      {
        "pid": "4104",
        "name": "กุมภวาปี",
        "changwat_pid": "41"
      },
      {
        "pid": "4105",
        "name": "โนนสะอาด",
        "changwat_pid": "41"
      },
      {
        "pid": "4106",
        "name": "หนองหาน",
        "changwat_pid": "41"
      },
      {
        "pid": "4107",
        "name": "ทุ่งฝน",
        "changwat_pid": "41"
      },
      {
        "pid": "4108",
        "name": "ไชยวาน",
        "changwat_pid": "41"
      },
      {
        "pid": "4109",
        "name": "ศรีธาตุ",
        "changwat_pid": "41"
      },
      {
        "pid": "4110",
        "name": "วังสามหมอ",
        "changwat_pid": "41"
      },
      {
        "pid": "4111",
        "name": "บ้านดุง",
        "changwat_pid": "41"
      },
      {
        "pid": "4117",
        "name": "บ้านผือ",
        "changwat_pid": "41"
      },
      {
        "pid": "4118",
        "name": "น้ำโสม",
        "changwat_pid": "41"
      },
      {
        "pid": "4119",
        "name": "เพ็ญ",
        "changwat_pid": "41"
      },
      {
        "pid": "4120",
        "name": "สร้างคอม",
        "changwat_pid": "41"
      },
      {
        "pid": "4121",
        "name": "หนองแสง",
        "changwat_pid": "41"
      },
      {
        "pid": "4122",
        "name": "นายูง",
        "changwat_pid": "41"
      },
      {
        "pid": "4123",
        "name": "พิบูลย์รักษ์",
        "changwat_pid": "41"
      },
      {
        "pid": "4124",
        "name": "กู่แก้ว",
        "changwat_pid": "41"
      },
      {
        "pid": "4125",
        "name": "ประจักษ์ศิลปาคม",
        "changwat_pid": "41"
      },
      {
        "pid": "4201",
        "name": "เมืองเลย",
        "changwat_pid": "42"
      },
      {
        "pid": "4202",
        "name": "นาด้วง",
        "changwat_pid": "42"
      },
      {
        "pid": "4203",
        "name": "เชียงคาน",
        "changwat_pid": "42"
      },
      {
        "pid": "4204",
        "name": "ปากชม",
        "changwat_pid": "42"
      },
      {
        "pid": "4205",
        "name": "ด่านซ้าย",
        "changwat_pid": "42"
      },
      {
        "pid": "4206",
        "name": "นาแห้ว",
        "changwat_pid": "42"
      },
      {
        "pid": "4207",
        "name": "ภูเรือ",
        "changwat_pid": "42"
      },
      {
        "pid": "4208",
        "name": "ท่าลี่",
        "changwat_pid": "42"
      },
      {
        "pid": "4209",
        "name": "วังสะพุง",
        "changwat_pid": "42"
      },
      {
        "pid": "4210",
        "name": "ภูกระดึง",
        "changwat_pid": "42"
      },
      {
        "pid": "4211",
        "name": "ภูหลวง",
        "changwat_pid": "42"
      },
      {
        "pid": "4212",
        "name": "ผาขาว",
        "changwat_pid": "42"
      },
      {
        "pid": "4213",
        "name": "เอราวัณ",
        "changwat_pid": "42"
      },
      {
        "pid": "4214",
        "name": "หนองหิน",
        "changwat_pid": "42"
      },
      {
        "pid": "4301",
        "name": "เมืองหนองคาย",
        "changwat_pid": "43"
      },
      {
        "pid": "4302",
        "name": "ท่าบ่อ",
        "changwat_pid": "43"
      },
      {
        "pid": "4305",
        "name": "โพนพิสัย",
        "changwat_pid": "43"
      },
      {
        "pid": "4307",
        "name": "ศรีเชียงใหม่",
        "changwat_pid": "43"
      },
      {
        "pid": "4308",
        "name": "สังคม",
        "changwat_pid": "43"
      },
      {
        "pid": "4314",
        "name": "สระใคร",
        "changwat_pid": "43"
      },
      {
        "pid": "4315",
        "name": "เฝ้าไร่",
        "changwat_pid": "43"
      },
      {
        "pid": "4316",
        "name": "รัตนวาปี",
        "changwat_pid": "43"
      },
      {
        "pid": "4317",
        "name": "โพธิ์ตาก",
        "changwat_pid": "43"
      },
      {
        "pid": "4401",
        "name": "เมืองมหาสารคาม",
        "changwat_pid": "44"
      },
      {
        "pid": "4402",
        "name": "แกดำ",
        "changwat_pid": "44"
      },
      {
        "pid": "4403",
        "name": "โกสุมพิสัย",
        "changwat_pid": "44"
      },
      {
        "pid": "4404",
        "name": "กันทรวิชัย",
        "changwat_pid": "44"
      },
      {
        "pid": "4405",
        "name": "เชียงยืน",
        "changwat_pid": "44"
      },
      {
        "pid": "4406",
        "name": "บรบือ",
        "changwat_pid": "44"
      },
      {
        "pid": "4407",
        "name": "นาเชือก",
        "changwat_pid": "44"
      },
      {
        "pid": "4408",
        "name": "พยัคฆภูมิพิสัย",
        "changwat_pid": "44"
      },
      {
        "pid": "4409",
        "name": "วาปีปทุม",
        "changwat_pid": "44"
      },
      {
        "pid": "4410",
        "name": "นาดูน",
        "changwat_pid": "44"
      },
      {
        "pid": "4411",
        "name": "ยางสีสุราช",
        "changwat_pid": "44"
      },
      {
        "pid": "4412",
        "name": "กุดรัง",
        "changwat_pid": "44"
      },
      {
        "pid": "4413",
        "name": "ชื่นชม",
        "changwat_pid": "44"
      },
      {
        "pid": "4501",
        "name": "เมืองร้อยเอ็ด",
        "changwat_pid": "45"
      },
      {
        "pid": "4502",
        "name": "เกษตรวิสัย",
        "changwat_pid": "45"
      },
      {
        "pid": "4503",
        "name": "ปทุมรัตต์",
        "changwat_pid": "45"
      },
      {
        "pid": "4504",
        "name": "จตุรพักตรพิมาน",
        "changwat_pid": "45"
      },
      {
        "pid": "4505",
        "name": "ธวัชบุรี",
        "changwat_pid": "45"
      },
      {
        "pid": "4506",
        "name": "พนมไพร",
        "changwat_pid": "45"
      },
      {
        "pid": "4507",
        "name": "โพนทอง",
        "changwat_pid": "45"
      },
      {
        "pid": "4508",
        "name": "โพธิ์ชัย",
        "changwat_pid": "45"
      },
      {
        "pid": "4509",
        "name": "หนองพอก",
        "changwat_pid": "45"
      },
      {
        "pid": "4510",
        "name": "เสลภูมิ",
        "changwat_pid": "45"
      },
      {
        "pid": "4511",
        "name": "สุวรรณภูมิ",
        "changwat_pid": "45"
      },
      {
        "pid": "4512",
        "name": "เมืองสรวง",
        "changwat_pid": "45"
      },
      {
        "pid": "4513",
        "name": "โพนทราย",
        "changwat_pid": "45"
      },
      {
        "pid": "4514",
        "name": "อาจสามารถ",
        "changwat_pid": "45"
      },
      {
        "pid": "4515",
        "name": "เมยวดี",
        "changwat_pid": "45"
      },
      {
        "pid": "4516",
        "name": "ศรีสมเด็จ",
        "changwat_pid": "45"
      },
      {
        "pid": "4517",
        "name": "จังหาร",
        "changwat_pid": "45"
      },
      {
        "pid": "4518",
        "name": "เชียงขวัญ",
        "changwat_pid": "45"
      },
      {
        "pid": "4519",
        "name": "หนองฮี",
        "changwat_pid": "45"
      },
      {
        "pid": "4520",
        "name": "ทุ่งเขาหลวง",
        "changwat_pid": "45"
      },
      {
        "pid": "4601",
        "name": "เมืองกาฬสินธุ์",
        "changwat_pid": "46"
      },
      {
        "pid": "4602",
        "name": "นามน",
        "changwat_pid": "46"
      },
      {
        "pid": "4603",
        "name": "กมลาไสย",
        "changwat_pid": "46"
      },
      {
        "pid": "4604",
        "name": "ร่องคำ",
        "changwat_pid": "46"
      },
      {
        "pid": "4605",
        "name": "กุฉินารายณ์",
        "changwat_pid": "46"
      },
      {
        "pid": "4606",
        "name": "เขาวง",
        "changwat_pid": "46"
      },
      {
        "pid": "4607",
        "name": "ยางตลาด",
        "changwat_pid": "46"
      },
      {
        "pid": "4608",
        "name": "ห้วยเม็ก",
        "changwat_pid": "46"
      },
      {
        "pid": "4609",
        "name": "สหัสขันธ์",
        "changwat_pid": "46"
      },
      {
        "pid": "4610",
        "name": "คำม่วง",
        "changwat_pid": "46"
      },
      {
        "pid": "4611",
        "name": "ท่าคันโท",
        "changwat_pid": "46"
      },
      {
        "pid": "4612",
        "name": "หนองกุงศรี",
        "changwat_pid": "46"
      },
      {
        "pid": "4613",
        "name": "สมเด็จ",
        "changwat_pid": "46"
      },
      {
        "pid": "4614",
        "name": "ห้วยผึ้ง",
        "changwat_pid": "46"
      },
      {
        "pid": "4615",
        "name": "สามชัย",
        "changwat_pid": "46"
      },
      {
        "pid": "4616",
        "name": "นาคู",
        "changwat_pid": "46"
      },
      {
        "pid": "4617",
        "name": "ดอนจาน",
        "changwat_pid": "46"
      },
      {
        "pid": "4618",
        "name": "ฆ้องชัย",
        "changwat_pid": "46"
      },
      {
        "pid": "4701",
        "name": "เมืองสกลนคร",
        "changwat_pid": "47"
      },
      {
        "pid": "4702",
        "name": "กุสุมาลย์",
        "changwat_pid": "47"
      },
      {
        "pid": "4703",
        "name": "กุดบาก",
        "changwat_pid": "47"
      },
      {
        "pid": "4704",
        "name": "พรรณานิคม",
        "changwat_pid": "47"
      },
      {
        "pid": "4705",
        "name": "พังโคน",
        "changwat_pid": "47"
      },
      {
        "pid": "4706",
        "name": "วาริชภูมิ",
        "changwat_pid": "47"
      },
      {
        "pid": "4707",
        "name": "นิคมน้ำอูน",
        "changwat_pid": "47"
      },
      {
        "pid": "4708",
        "name": "วานรนิวาส",
        "changwat_pid": "47"
      },
      {
        "pid": "4709",
        "name": "คำตากล้า",
        "changwat_pid": "47"
      },
      {
        "pid": "4710",
        "name": "บ้านม่วง",
        "changwat_pid": "47"
      },
      {
        "pid": "4711",
        "name": "อากาศอำนวย",
        "changwat_pid": "47"
      },
      {
        "pid": "4712",
        "name": "สว่างแดนดิน",
        "changwat_pid": "47"
      },
      {
        "pid": "4713",
        "name": "ส่องดาว",
        "changwat_pid": "47"
      },
      {
        "pid": "4714",
        "name": "เต่างอย",
        "changwat_pid": "47"
      },
      {
        "pid": "4715",
        "name": "โคกศรีสุพรรณ",
        "changwat_pid": "47"
      },
      {
        "pid": "4716",
        "name": "เจริญศิลป์",
        "changwat_pid": "47"
      },
      {
        "pid": "4717",
        "name": "โพนนาแก้ว",
        "changwat_pid": "47"
      },
      {
        "pid": "4718",
        "name": "ภูพาน",
        "changwat_pid": "47"
      },
      {
        "pid": "4801",
        "name": "เมืองนครพนม",
        "changwat_pid": "48"
      },
      {
        "pid": "4802",
        "name": "ปลาปาก",
        "changwat_pid": "48"
      },
      {
        "pid": "4803",
        "name": "ท่าอุเทน",
        "changwat_pid": "48"
      },
      {
        "pid": "4804",
        "name": "บ้านแพง",
        "changwat_pid": "48"
      },
      {
        "pid": "4805",
        "name": "ธาตุพนม",
        "changwat_pid": "48"
      },
      {
        "pid": "4806",
        "name": "เรณูนคร",
        "changwat_pid": "48"
      },
      {
        "pid": "4807",
        "name": "นาแก",
        "changwat_pid": "48"
      },
      {
        "pid": "4808",
        "name": "ศรีสงคราม",
        "changwat_pid": "48"
      },
      {
        "pid": "4809",
        "name": "นาหว้า",
        "changwat_pid": "48"
      },
      {
        "pid": "4810",
        "name": "โพนสวรรค์",
        "changwat_pid": "48"
      },
      {
        "pid": "4811",
        "name": "นาทม",
        "changwat_pid": "48"
      },
      {
        "pid": "4812",
        "name": "วังยาง",
        "changwat_pid": "48"
      },
      {
        "pid": "4901",
        "name": "เมืองมุกดาหาร",
        "changwat_pid": "49"
      },
      {
        "pid": "4902",
        "name": "นิคมคำสร้อย",
        "changwat_pid": "49"
      },
      {
        "pid": "4903",
        "name": "ดอนตาล",
        "changwat_pid": "49"
      },
      {
        "pid": "4904",
        "name": "ดงหลวง",
        "changwat_pid": "49"
      },
      {
        "pid": "4905",
        "name": "คำชะอี",
        "changwat_pid": "49"
      },
      {
        "pid": "4906",
        "name": "ว่านใหญ่",
        "changwat_pid": "49"
      },
      {
        "pid": "4907",
        "name": "หนองสูง",
        "changwat_pid": "49"
      },
      {
        "pid": "5001",
        "name": "เมืองเชียงใหม่",
        "changwat_pid": "50"
      },
      {
        "pid": "5002",
        "name": "จอมทอง",
        "changwat_pid": "50"
      },
      {
        "pid": "5003",
        "name": "แม่แจ่ม",
        "changwat_pid": "50"
      },
      {
        "pid": "5004",
        "name": "เชียงดาว",
        "changwat_pid": "50"
      },
      {
        "pid": "5005",
        "name": "ดอยสะเก็ด",
        "changwat_pid": "50"
      },
      {
        "pid": "5006",
        "name": "แม่แตง",
        "changwat_pid": "50"
      },
      {
        "pid": "5007",
        "name": "แม่ริม",
        "changwat_pid": "50"
      },
      {
        "pid": "5008",
        "name": "สะเมิง",
        "changwat_pid": "50"
      },
      {
        "pid": "5009",
        "name": "ฝาง",
        "changwat_pid": "50"
      },
      {
        "pid": "5010",
        "name": "แม่อาย",
        "changwat_pid": "50"
      },
      {
        "pid": "5011",
        "name": "พร้าว",
        "changwat_pid": "50"
      },
      {
        "pid": "5012",
        "name": "สันป่าตอง",
        "changwat_pid": "50"
      },
      {
        "pid": "5013",
        "name": "สันกำแพง",
        "changwat_pid": "50"
      },
      {
        "pid": "5014",
        "name": "สันทราย",
        "changwat_pid": "50"
      },
      {
        "pid": "5015",
        "name": "หางดง",
        "changwat_pid": "50"
      },
      {
        "pid": "5016",
        "name": "ฮอด",
        "changwat_pid": "50"
      },
      {
        "pid": "5017",
        "name": "ดอยเต่า",
        "changwat_pid": "50"
      },
      {
        "pid": "5018",
        "name": "อมก๋อย",
        "changwat_pid": "50"
      },
      {
        "pid": "5019",
        "name": "สารภี",
        "changwat_pid": "50"
      },
      {
        "pid": "5020",
        "name": "เวียงแหง",
        "changwat_pid": "50"
      },
      {
        "pid": "5021",
        "name": "ไชยปราการ",
        "changwat_pid": "50"
      },
      {
        "pid": "5022",
        "name": "แม่วาง",
        "changwat_pid": "50"
      },
      {
        "pid": "5023",
        "name": "แม่ออน",
        "changwat_pid": "50"
      },
      {
        "pid": "5024",
        "name": "ดอยหล่อ",
        "changwat_pid": "50"
      },
      {
        "pid": "5025",
        "name": "กัลยาณิวัฒนา",
        "changwat_pid": "50"
      },
      {
        "pid": "5101",
        "name": "เมืองลำพูน",
        "changwat_pid": "51"
      },
      {
        "pid": "5102",
        "name": "แม่ทา",
        "changwat_pid": "51"
      },
      {
        "pid": "5103",
        "name": "บ้านโฮ่ง",
        "changwat_pid": "51"
      },
      {
        "pid": "5104",
        "name": "ลี้",
        "changwat_pid": "51"
      },
      {
        "pid": "5105",
        "name": "ทุ่งหัวช้าง",
        "changwat_pid": "51"
      },
      {
        "pid": "5106",
        "name": "ป่าซาง",
        "changwat_pid": "51"
      },
      {
        "pid": "5107",
        "name": "บ้านธิ",
        "changwat_pid": "51"
      },
      {
        "pid": "5108",
        "name": "เวียงหนองล่อง",
        "changwat_pid": "51"
      },
      {
        "pid": "5201",
        "name": "เมืองลำปาง",
        "changwat_pid": "52"
      },
      {
        "pid": "5202",
        "name": "แม่เมาะ",
        "changwat_pid": "52"
      },
      {
        "pid": "5203",
        "name": "เกาะคา",
        "changwat_pid": "52"
      },
      {
        "pid": "5204",
        "name": "เสริมงาม",
        "changwat_pid": "52"
      },
      {
        "pid": "5205",
        "name": "งาว",
        "changwat_pid": "52"
      },
      {
        "pid": "5206",
        "name": "แจ้ห่ม",
        "changwat_pid": "52"
      },
      {
        "pid": "5207",
        "name": "วังเหนือ",
        "changwat_pid": "52"
      },
      {
        "pid": "5208",
        "name": "เถิน",
        "changwat_pid": "52"
      },
      {
        "pid": "5209",
        "name": "แม่พริก",
        "changwat_pid": "52"
      },
      {
        "pid": "5210",
        "name": "แม่ทะ",
        "changwat_pid": "52"
      },
      {
        "pid": "5211",
        "name": "สบปราบ",
        "changwat_pid": "52"
      },
      {
        "pid": "5212",
        "name": "ห้างฉัตร",
        "changwat_pid": "52"
      },
      {
        "pid": "5213",
        "name": "เมืองปาน",
        "changwat_pid": "52"
      },
      {
        "pid": "5301",
        "name": "เมืองอุตรดิตถ์",
        "changwat_pid": "53"
      },
      {
        "pid": "5302",
        "name": "ตรอน",
        "changwat_pid": "53"
      },
      {
        "pid": "5303",
        "name": "ท่าปลา",
        "changwat_pid": "53"
      },
      {
        "pid": "5304",
        "name": "น้ำปาด",
        "changwat_pid": "53"
      },
      {
        "pid": "5305",
        "name": "ฟากท่า",
        "changwat_pid": "53"
      },
      {
        "pid": "5306",
        "name": "บ้านโคก",
        "changwat_pid": "53"
      },
      {
        "pid": "5307",
        "name": "พิชัย",
        "changwat_pid": "53"
      },
      {
        "pid": "5308",
        "name": "ลับแล",
        "changwat_pid": "53"
      },
      {
        "pid": "5309",
        "name": "ทองแสนขัน",
        "changwat_pid": "53"
      },
      {
        "pid": "5401",
        "name": "เมืองแพร่",
        "changwat_pid": "54"
      },
      {
        "pid": "5402",
        "name": "ร้องกวาง",
        "changwat_pid": "54"
      },
      {
        "pid": "5403",
        "name": "ลอง",
        "changwat_pid": "54"
      },
      {
        "pid": "5404",
        "name": "สูงเม่น",
        "changwat_pid": "54"
      },
      {
        "pid": "5405",
        "name": "เด่นชัย",
        "changwat_pid": "54"
      },
      {
        "pid": "5406",
        "name": "สอง",
        "changwat_pid": "54"
      },
      {
        "pid": "5407",
        "name": "วังชิ้น",
        "changwat_pid": "54"
      },
      {
        "pid": "5408",
        "name": "หนองม่วงไข่",
        "changwat_pid": "54"
      },
      {
        "pid": "5501",
        "name": "เมืองน่าน",
        "changwat_pid": "55"
      },
      {
        "pid": "5502",
        "name": "แม่จริม",
        "changwat_pid": "55"
      },
      {
        "pid": "5503",
        "name": "บ้านหลวง",
        "changwat_pid": "55"
      },
      {
        "pid": "5504",
        "name": "นาน้อย",
        "changwat_pid": "55"
      },
      {
        "pid": "5505",
        "name": "ปัว",
        "changwat_pid": "55"
      },
      {
        "pid": "5506",
        "name": "ท่าวังผา",
        "changwat_pid": "55"
      },
      {
        "pid": "5507",
        "name": "เวียงสา",
        "changwat_pid": "55"
      },
      {
        "pid": "5508",
        "name": "ทุ่งช้าง",
        "changwat_pid": "55"
      },
      {
        "pid": "5509",
        "name": "เชียงกลาง",
        "changwat_pid": "55"
      },
      {
        "pid": "5510",
        "name": "นาหมื่น",
        "changwat_pid": "55"
      },
      {
        "pid": "5511",
        "name": "สันติสุข",
        "changwat_pid": "55"
      },
      {
        "pid": "5512",
        "name": "บ่อเกลือ",
        "changwat_pid": "55"
      },
      {
        "pid": "5513",
        "name": "สองแคว",
        "changwat_pid": "55"
      },
      {
        "pid": "5514",
        "name": "ภูเพียง",
        "changwat_pid": "55"
      },
      {
        "pid": "5515",
        "name": "เฉลิมพระเกียรติ",
        "changwat_pid": "55"
      },
      {
        "pid": "5601",
        "name": "เมืองพะเยา",
        "changwat_pid": "56"
      },
      {
        "pid": "5602",
        "name": "จุน",
        "changwat_pid": "56"
      },
      {
        "pid": "5603",
        "name": "เชียงคำ",
        "changwat_pid": "56"
      },
      {
        "pid": "5604",
        "name": "เชียงม่วน",
        "changwat_pid": "56"
      },
      {
        "pid": "5605",
        "name": "ดอกคำใต้",
        "changwat_pid": "56"
      },
      {
        "pid": "5606",
        "name": "ปง",
        "changwat_pid": "56"
      },
      {
        "pid": "5607",
        "name": "แม่ใจ",
        "changwat_pid": "56"
      },
      {
        "pid": "5608",
        "name": "ภูซาง",
        "changwat_pid": "56"
      },
      {
        "pid": "5609",
        "name": "ภูกามยาว",
        "changwat_pid": "56"
      },
      {
        "pid": "5701",
        "name": "เมืองเชียงราย",
        "changwat_pid": "57"
      },
      {
        "pid": "5702",
        "name": "เวียงชัย",
        "changwat_pid": "57"
      },
      {
        "pid": "5703",
        "name": "เชียงของ",
        "changwat_pid": "57"
      },
      {
        "pid": "5704",
        "name": "เทิง",
        "changwat_pid": "57"
      },
      {
        "pid": "5705",
        "name": "พาน",
        "changwat_pid": "57"
      },
      {
        "pid": "5706",
        "name": "ป่าแดด",
        "changwat_pid": "57"
      },
      {
        "pid": "5707",
        "name": "แม่จัน",
        "changwat_pid": "57"
      },
      {
        "pid": "5708",
        "name": "เชียงแสน",
        "changwat_pid": "57"
      },
      {
        "pid": "5709",
        "name": "แม่สาย",
        "changwat_pid": "57"
      },
      {
        "pid": "5710",
        "name": "แม่สรวย",
        "changwat_pid": "57"
      },
      {
        "pid": "5711",
        "name": "เวียงป่าเป้า",
        "changwat_pid": "57"
      },
      {
        "pid": "5712",
        "name": "พญาเม็งราย",
        "changwat_pid": "57"
      },
      {
        "pid": "5713",
        "name": "เวียงแก่น",
        "changwat_pid": "57"
      },
      {
        "pid": "5714",
        "name": "ขุนตาล",
        "changwat_pid": "57"
      },
      {
        "pid": "5715",
        "name": "แม่ฟ้าหลวง",
        "changwat_pid": "57"
      },
      {
        "pid": "5716",
        "name": "แม่ลาว",
        "changwat_pid": "57"
      },
      {
        "pid": "5717",
        "name": "เวียงเชียงรุ้ง",
        "changwat_pid": "57"
      },
      {
        "pid": "5718",
        "name": "ดอยหลวง",
        "changwat_pid": "57"
      },
      {
        "pid": "5801",
        "name": "เมืองแม่ฮ่องสอน",
        "changwat_pid": "58"
      },
      {
        "pid": "5802",
        "name": "ขุนยวม",
        "changwat_pid": "58"
      },
      {
        "pid": "5803",
        "name": "ปาย",
        "changwat_pid": "58"
      },
      {
        "pid": "5804",
        "name": "แม่สะเรียง",
        "changwat_pid": "58"
      },
      {
        "pid": "5805",
        "name": "แม่ลาน้อย",
        "changwat_pid": "58"
      },
      {
        "pid": "5806",
        "name": "สบเมย",
        "changwat_pid": "58"
      },
      {
        "pid": "5807",
        "name": "ปางมะผ้า",
        "changwat_pid": "58"
      },
      {
        "pid": "6001",
        "name": "เมืองนครสวรรค์",
        "changwat_pid": "60"
      },
      {
        "pid": "6002",
        "name": "โกรกพระ",
        "changwat_pid": "60"
      },
      {
        "pid": "6003",
        "name": "ชุมแสง",
        "changwat_pid": "60"
      },
      {
        "pid": "6004",
        "name": "หนองบัว",
        "changwat_pid": "60"
      },
      {
        "pid": "6005",
        "name": "บรรพตพิสัย",
        "changwat_pid": "60"
      },
      {
        "pid": "6006",
        "name": "เก้าเลี้ยว",
        "changwat_pid": "60"
      },
      {
        "pid": "6007",
        "name": "ตาคลี",
        "changwat_pid": "60"
      },
      {
        "pid": "6008",
        "name": "ท่าตะโก",
        "changwat_pid": "60"
      },
      {
        "pid": "6009",
        "name": "ไพศาลี",
        "changwat_pid": "60"
      },
      {
        "pid": "6010",
        "name": "พยุหะคีรี",
        "changwat_pid": "60"
      },
      {
        "pid": "6011",
        "name": "ลาดยาว",
        "changwat_pid": "60"
      },
      {
        "pid": "6012",
        "name": "ตากฟ้า",
        "changwat_pid": "60"
      },
      {
        "pid": "6013",
        "name": "แม่วงก์",
        "changwat_pid": "60"
      },
      {
        "pid": "6014",
        "name": "แม่เปิน",
        "changwat_pid": "60"
      },
      {
        "pid": "6015",
        "name": "ชุมตาบง",
        "changwat_pid": "60"
      },
      {
        "pid": "6101",
        "name": "เมืองอุทัยธานี",
        "changwat_pid": "61"
      },
      {
        "pid": "6102",
        "name": "ทัพทัน",
        "changwat_pid": "61"
      },
      {
        "pid": "6103",
        "name": "สว่างอารมณ์",
        "changwat_pid": "61"
      },
      {
        "pid": "6104",
        "name": "หนองฉาง",
        "changwat_pid": "61"
      },
      {
        "pid": "6105",
        "name": "หนองขาหย่าง",
        "changwat_pid": "61"
      },
      {
        "pid": "6106",
        "name": "บ้านไร่",
        "changwat_pid": "61"
      },
      {
        "pid": "6107",
        "name": "ลานสัก",
        "changwat_pid": "61"
      },
      {
        "pid": "6108",
        "name": "ห้วยคต",
        "changwat_pid": "61"
      },
      {
        "pid": "6201",
        "name": "เมืองกำแพงเพชร",
        "changwat_pid": "62"
      },
      {
        "pid": "6202",
        "name": "ไทรงาม",
        "changwat_pid": "62"
      },
      {
        "pid": "6203",
        "name": "คลองลาน",
        "changwat_pid": "62"
      },
      {
        "pid": "6204",
        "name": "ขาณุวรลักษบุรี",
        "changwat_pid": "62"
      },
      {
        "pid": "6205",
        "name": "คลองขลุง",
        "changwat_pid": "62"
      },
      {
        "pid": "6206",
        "name": "พรานกระต่าย",
        "changwat_pid": "62"
      },
      {
        "pid": "6207",
        "name": "ลานกระบือ",
        "changwat_pid": "62"
      },
      {
        "pid": "6208",
        "name": "ทรายทองวัฒนา",
        "changwat_pid": "62"
      },
      {
        "pid": "6209",
        "name": "ปางศิลาทอง",
        "changwat_pid": "62"
      },
      {
        "pid": "6210",
        "name": "บึงสามัคคี",
        "changwat_pid": "62"
      },
      {
        "pid": "6211",
        "name": "โกสัมพีนคร",
        "changwat_pid": "62"
      },
      {
        "pid": "6301",
        "name": "เมืองตาก",
        "changwat_pid": "63"
      },
      {
        "pid": "6302",
        "name": "บ้านตาก",
        "changwat_pid": "63"
      },
      {
        "pid": "6303",
        "name": "สามเงา",
        "changwat_pid": "63"
      },
      {
        "pid": "6304",
        "name": "แม่ระมาด",
        "changwat_pid": "63"
      },
      {
        "pid": "6305",
        "name": "ท่าสองยาง",
        "changwat_pid": "63"
      },
      {
        "pid": "6306",
        "name": "แม่สอด",
        "changwat_pid": "63"
      },
      {
        "pid": "6307",
        "name": "พบพระ",
        "changwat_pid": "63"
      },
      {
        "pid": "6308",
        "name": "อุ้มผาง",
        "changwat_pid": "63"
      },
      {
        "pid": "6309",
        "name": "วังเจ้า",
        "changwat_pid": "63"
      },
      {
        "pid": "6401",
        "name": "เมืองสุโขทัย",
        "changwat_pid": "64"
      },
      {
        "pid": "6402",
        "name": "บ้านด่านลานหอย",
        "changwat_pid": "64"
      },
      {
        "pid": "6403",
        "name": "คีรีมาศ",
        "changwat_pid": "64"
      },
      {
        "pid": "6404",
        "name": "กงไกรลาศ",
        "changwat_pid": "64"
      },
      {
        "pid": "6405",
        "name": "ศรีสัชนาลัย",
        "changwat_pid": "64"
      },
      {
        "pid": "6406",
        "name": "ศรีสำโรง",
        "changwat_pid": "64"
      },
      {
        "pid": "6407",
        "name": "สวรรคโลก",
        "changwat_pid": "64"
      },
      {
        "pid": "6408",
        "name": "ศรีนคร",
        "changwat_pid": "64"
      },
      {
        "pid": "6409",
        "name": "ทุ่งเสลี่ยม",
        "changwat_pid": "64"
      },
      {
        "pid": "6501",
        "name": "เมืองพิษณุโลก",
        "changwat_pid": "65"
      },
      {
        "pid": "6502",
        "name": "นครไทย",
        "changwat_pid": "65"
      },
      {
        "pid": "6503",
        "name": "ชาติตระการ",
        "changwat_pid": "65"
      },
      {
        "pid": "6504",
        "name": "บางระกำ",
        "changwat_pid": "65"
      },
      {
        "pid": "6505",
        "name": "บางกระทุ่ม",
        "changwat_pid": "65"
      },
      {
        "pid": "6506",
        "name": "พรหมพิราม",
        "changwat_pid": "65"
      },
      {
        "pid": "6507",
        "name": "วัดโบสถ์",
        "changwat_pid": "65"
      },
      {
        "pid": "6508",
        "name": "วังทอง",
        "changwat_pid": "65"
      },
      {
        "pid": "6509",
        "name": "เนินมะปราง",
        "changwat_pid": "65"
      },
      {
        "pid": "6601",
        "name": "เมืองพิจิตร",
        "changwat_pid": "66"
      },
      {
        "pid": "6602",
        "name": "วังทรายพูน",
        "changwat_pid": "66"
      },
      {
        "pid": "6603",
        "name": "โพธิ์ประทับช้าง",
        "changwat_pid": "66"
      },
      {
        "pid": "6604",
        "name": "ตะพานหิน",
        "changwat_pid": "66"
      },
      {
        "pid": "6605",
        "name": "บางมูลนาก",
        "changwat_pid": "66"
      },
      {
        "pid": "6606",
        "name": "โพทะเล",
        "changwat_pid": "66"
      },
      {
        "pid": "6607",
        "name": "สามง่าม",
        "changwat_pid": "66"
      },
      {
        "pid": "6608",
        "name": "ทับคล้อ",
        "changwat_pid": "66"
      },
      {
        "pid": "6609",
        "name": "สากเหล็ก",
        "changwat_pid": "66"
      },
      {
        "pid": "6610",
        "name": "บึงนาราง",
        "changwat_pid": "66"
      },
      {
        "pid": "6611",
        "name": "ดงเจริญ",
        "changwat_pid": "66"
      },
      {
        "pid": "6612",
        "name": "วชิรบารมี",
        "changwat_pid": "66"
      },
      {
        "pid": "6701",
        "name": "เมืองเพชรบูรณ์",
        "changwat_pid": "67"
      },
      {
        "pid": "6702",
        "name": "ชนแดน",
        "changwat_pid": "67"
      },
      {
        "pid": "6703",
        "name": "หล่มสัก",
        "changwat_pid": "67"
      },
      {
        "pid": "6704",
        "name": "หล่มเก่า",
        "changwat_pid": "67"
      },
      {
        "pid": "6705",
        "name": "วิเชียรบุรี",
        "changwat_pid": "67"
      },
      {
        "pid": "6706",
        "name": "ศรีเทพ",
        "changwat_pid": "67"
      },
      {
        "pid": "6707",
        "name": "หนองไผ่",
        "changwat_pid": "67"
      },
      {
        "pid": "6708",
        "name": "บึงสามพัน",
        "changwat_pid": "67"
      },
      {
        "pid": "6709",
        "name": "น้ำหนาว",
        "changwat_pid": "67"
      },
      {
        "pid": "6710",
        "name": "วังโป่ง",
        "changwat_pid": "67"
      },
      {
        "pid": "6711",
        "name": "เขาค้อ",
        "changwat_pid": "67"
      },
      {
        "pid": "7001",
        "name": "เมืองราชบุรี",
        "changwat_pid": "70"
      },
      {
        "pid": "7002",
        "name": "จอมบึง",
        "changwat_pid": "70"
      },
      {
        "pid": "7003",
        "name": "สวนผึ้ง",
        "changwat_pid": "70"
      },
      {
        "pid": "7004",
        "name": "ดำเนินสะดวก",
        "changwat_pid": "70"
      },
      {
        "pid": "7005",
        "name": "บ้านโป่ง",
        "changwat_pid": "70"
      },
      {
        "pid": "7006",
        "name": "บางแพ",
        "changwat_pid": "70"
      },
      {
        "pid": "7007",
        "name": "โพธาราม",
        "changwat_pid": "70"
      },
      {
        "pid": "7008",
        "name": "ปากท่อ",
        "changwat_pid": "70"
      },
      {
        "pid": "7009",
        "name": "วัดเพลง",
        "changwat_pid": "70"
      },
      {
        "pid": "7010",
        "name": "บ้านคา",
        "changwat_pid": "70"
      },
      {
        "pid": "7101",
        "name": "เมืองกาญจนบุรี",
        "changwat_pid": "71"
      },
      {
        "pid": "7102",
        "name": "ไทรโยค",
        "changwat_pid": "71"
      },
      {
        "pid": "7103",
        "name": "บ่อพลอย",
        "changwat_pid": "71"
      },
      {
        "pid": "7104",
        "name": "ศรีสวัสดิ์",
        "changwat_pid": "71"
      },
      {
        "pid": "7105",
        "name": "ท่ามะกา",
        "changwat_pid": "71"
      },
      {
        "pid": "7106",
        "name": "ท่าม่วง",
        "changwat_pid": "71"
      },
      {
        "pid": "7107",
        "name": "ทองผาภูมิ",
        "changwat_pid": "71"
      },
      {
        "pid": "7108",
        "name": "สังขละบุรี",
        "changwat_pid": "71"
      },
      {
        "pid": "7109",
        "name": "พนมทวน",
        "changwat_pid": "71"
      },
      {
        "pid": "7110",
        "name": "เลาขวัญ",
        "changwat_pid": "71"
      },
      {
        "pid": "7111",
        "name": "ด่านมะขามเตี้ย",
        "changwat_pid": "71"
      },
      {
        "pid": "7112",
        "name": "หนองปรือ",
        "changwat_pid": "71"
      },
      {
        "pid": "7113",
        "name": "ห้วยกระเจา",
        "changwat_pid": "71"
      },
      {
        "pid": "7201",
        "name": "เมืองสุพรรณบุรี",
        "changwat_pid": "72"
      },
      {
        "pid": "7202",
        "name": "เดิมบางนางบวช",
        "changwat_pid": "72"
      },
      {
        "pid": "7203",
        "name": "ด่านช้าง",
        "changwat_pid": "72"
      },
      {
        "pid": "7204",
        "name": "บางปลาม้า",
        "changwat_pid": "72"
      },
      {
        "pid": "7205",
        "name": "ศรีประจันต์",
        "changwat_pid": "72"
      },
      {
        "pid": "7206",
        "name": "ดอนเจดีย์",
        "changwat_pid": "72"
      },
      {
        "pid": "7207",
        "name": "สองพี่น้อง",
        "changwat_pid": "72"
      },
      {
        "pid": "7208",
        "name": "สามชุก",
        "changwat_pid": "72"
      },
      {
        "pid": "7209",
        "name": "อู่ทอง",
        "changwat_pid": "72"
      },
      {
        "pid": "7210",
        "name": "หนองหญ้าไซ",
        "changwat_pid": "72"
      },
      {
        "pid": "7301",
        "name": "เมืองนครปฐม",
        "changwat_pid": "73"
      },
      {
        "pid": "7302",
        "name": "กำแพงแสน",
        "changwat_pid": "73"
      },
      {
        "pid": "7303",
        "name": "นครชัยศรี",
        "changwat_pid": "73"
      },
      {
        "pid": "7304",
        "name": "ดอนตูม",
        "changwat_pid": "73"
      },
      {
        "pid": "7305",
        "name": "บางเลน",
        "changwat_pid": "73"
      },
      {
        "pid": "7306",
        "name": "สามพราน",
        "changwat_pid": "73"
      },
      {
        "pid": "7307",
        "name": "พุทธมณฑล",
        "changwat_pid": "73"
      },
      {
        "pid": "7401",
        "name": "เมืองสมุทรสาคร",
        "changwat_pid": "74"
      },
      {
        "pid": "7402",
        "name": "กระทุ่มแบน",
        "changwat_pid": "74"
      },
      {
        "pid": "7403",
        "name": "บ้านแพ้ว",
        "changwat_pid": "74"
      },
      {
        "pid": "7501",
        "name": "เมืองสมุทรสงคราม",
        "changwat_pid": "75"
      },
      {
        "pid": "7502",
        "name": "บางคนที",
        "changwat_pid": "75"
      },
      {
        "pid": "7503",
        "name": "อัมพวา",
        "changwat_pid": "75"
      },
      {
        "pid": "7601",
        "name": "เมืองเพชรบุรี",
        "changwat_pid": "76"
      },
      {
        "pid": "7602",
        "name": "เขาย้อย",
        "changwat_pid": "76"
      },
      {
        "pid": "7603",
        "name": "หนองหญ้าปล้อง",
        "changwat_pid": "76"
      },
      {
        "pid": "7604",
        "name": "ชะอำ",
        "changwat_pid": "76"
      },
      {
        "pid": "7605",
        "name": "ท่ายาง",
        "changwat_pid": "76"
      },
      {
        "pid": "7606",
        "name": "บ้านลาด",
        "changwat_pid": "76"
      },
      {
        "pid": "7607",
        "name": "บ้านแหลม",
        "changwat_pid": "76"
      },
      {
        "pid": "7608",
        "name": "แก่งกระจาน",
        "changwat_pid": "76"
      },
      {
        "pid": "7701",
        "name": "เมืองประจวบคีรีขันธ์",
        "changwat_pid": "77"
      },
      {
        "pid": "7702",
        "name": "กุยบุรี",
        "changwat_pid": "77"
      },
      {
        "pid": "7703",
        "name": "ทับสะแก",
        "changwat_pid": "77"
      },
      {
        "pid": "7704",
        "name": "บางสะพาน",
        "changwat_pid": "77"
      },
      {
        "pid": "7705",
        "name": "บางสะพานน้อย",
        "changwat_pid": "77"
      },
      {
        "pid": "7706",
        "name": "ปราณบุรี",
        "changwat_pid": "77"
      },
      {
        "pid": "7707",
        "name": "หัวหิน",
        "changwat_pid": "77"
      },
      {
        "pid": "7708",
        "name": "สามร้อยยอด",
        "changwat_pid": "77"
      },
      {
        "pid": "8001",
        "name": "เมืองนครศรีธรรมราช",
        "changwat_pid": "80"
      },
      {
        "pid": "8002",
        "name": "พรหมคีรี",
        "changwat_pid": "80"
      },
      {
        "pid": "8003",
        "name": "ลานสกา",
        "changwat_pid": "80"
      },
      {
        "pid": "8004",
        "name": "ฉวาง",
        "changwat_pid": "80"
      },
      {
        "pid": "8005",
        "name": "พิปูน",
        "changwat_pid": "80"
      },
      {
        "pid": "8006",
        "name": "เชียรใหญ่",
        "changwat_pid": "80"
      },
      {
        "pid": "8007",
        "name": "ชะอวด",
        "changwat_pid": "80"
      },
      {
        "pid": "8008",
        "name": "ท่าศาลา",
        "changwat_pid": "80"
      },
      {
        "pid": "8009",
        "name": "ทุ่งสง",
        "changwat_pid": "80"
      },
      {
        "pid": "8010",
        "name": "นาบอน",
        "changwat_pid": "80"
      },
      {
        "pid": "8011",
        "name": "ทุ่งใหญ่",
        "changwat_pid": "80"
      },
      {
        "pid": "8012",
        "name": "ปากพนัง",
        "changwat_pid": "80"
      },
      {
        "pid": "8013",
        "name": "ร่อนพิบูลย์",
        "changwat_pid": "80"
      },
      {
        "pid": "8014",
        "name": "สิชล",
        "changwat_pid": "80"
      },
      {
        "pid": "8015",
        "name": "ขนอม",
        "changwat_pid": "80"
      },
      {
        "pid": "8016",
        "name": "หัวไทร",
        "changwat_pid": "80"
      },
      {
        "pid": "8017",
        "name": "บางขัน",
        "changwat_pid": "80"
      },
      {
        "pid": "8018",
        "name": "ถ้ำพรรณรา",
        "changwat_pid": "80"
      },
      {
        "pid": "8019",
        "name": "จุฬาภรณ์",
        "changwat_pid": "80"
      },
      {
        "pid": "8020",
        "name": "พระพรหม",
        "changwat_pid": "80"
      },
      {
        "pid": "8021",
        "name": "นบพิตำ",
        "changwat_pid": "80"
      },
      {
        "pid": "8022",
        "name": "ช้างกลาง",
        "changwat_pid": "80"
      },
      {
        "pid": "8023",
        "name": "เฉลิมพระเกียรติ",
        "changwat_pid": "80"
      },
      {
        "pid": "8101",
        "name": "เมืองกระบี่",
        "changwat_pid": "81"
      },
      {
        "pid": "8102",
        "name": "เขาพนม",
        "changwat_pid": "81"
      },
      {
        "pid": "8103",
        "name": "เกาะลันตา",
        "changwat_pid": "81"
      },
      {
        "pid": "8104",
        "name": "คลองท่อม",
        "changwat_pid": "81"
      },
      {
        "pid": "8105",
        "name": "อ่าวลึก",
        "changwat_pid": "81"
      },
      {
        "pid": "8106",
        "name": "ปลายพระยา",
        "changwat_pid": "81"
      },
      {
        "pid": "8107",
        "name": "ลำทับ",
        "changwat_pid": "81"
      },
      {
        "pid": "8108",
        "name": "เหนือคลอง",
        "changwat_pid": "81"
      },
      {
        "pid": "8201",
        "name": "เมืองพังงา",
        "changwat_pid": "82"
      },
      {
        "pid": "8202",
        "name": "เกาะยาว",
        "changwat_pid": "82"
      },
      {
        "pid": "8203",
        "name": "กะปง",
        "changwat_pid": "82"
      },
      {
        "pid": "8204",
        "name": "ตะกั่วทุ่ง",
        "changwat_pid": "82"
      },
      {
        "pid": "8205",
        "name": "ตะกั่วป่า",
        "changwat_pid": "82"
      },
      {
        "pid": "8206",
        "name": "คุระบุรี",
        "changwat_pid": "82"
      },
      {
        "pid": "8207",
        "name": "ทับปุด",
        "changwat_pid": "82"
      },
      {
        "pid": "8208",
        "name": "ท้ายเหมือง",
        "changwat_pid": "82"
      },
      {
        "pid": "8301",
        "name": "เมืองภูเก็ต",
        "changwat_pid": "83"
      },
      {
        "pid": "8302",
        "name": "กะทู้",
        "changwat_pid": "83"
      },
      {
        "pid": "8303",
        "name": "ถลาง",
        "changwat_pid": "83"
      },
      {
        "pid": "8401",
        "name": "เมืองสุราษฎร์ธานี",
        "changwat_pid": "84"
      },
      {
        "pid": "8402",
        "name": "กาญจนดิษฐ์",
        "changwat_pid": "84"
      },
      {
        "pid": "8403",
        "name": "ดอนสัก",
        "changwat_pid": "84"
      },
      {
        "pid": "8404",
        "name": "เกาะสมุย",
        "changwat_pid": "84"
      },
      {
        "pid": "8405",
        "name": "เกาะพะงัน",
        "changwat_pid": "84"
      },
      {
        "pid": "8406",
        "name": "ไชยา",
        "changwat_pid": "84"
      },
      {
        "pid": "8407",
        "name": "ท่าชนะ",
        "changwat_pid": "84"
      },
      {
        "pid": "8408",
        "name": "คีรีรัฐนิคม",
        "changwat_pid": "84"
      },
      {
        "pid": "8409",
        "name": "บ้านตาขุน",
        "changwat_pid": "84"
      },
      {
        "pid": "8410",
        "name": "พนม",
        "changwat_pid": "84"
      },
      {
        "pid": "8411",
        "name": "ท่าฉาง",
        "changwat_pid": "84"
      },
      {
        "pid": "8412",
        "name": "บ้านนาสาร",
        "changwat_pid": "84"
      },
      {
        "pid": "8413",
        "name": "บ้านนาเดิม",
        "changwat_pid": "84"
      },
      {
        "pid": "8414",
        "name": "เคียนซา",
        "changwat_pid": "84"
      },
      {
        "pid": "8415",
        "name": "เวียงสระ",
        "changwat_pid": "84"
      },
      {
        "pid": "8416",
        "name": "พระแสง",
        "changwat_pid": "84"
      },
      {
        "pid": "8417",
        "name": "พุนพิน",
        "changwat_pid": "84"
      },
      {
        "pid": "8418",
        "name": "ชัยบุรี",
        "changwat_pid": "84"
      },
      {
        "pid": "8419",
        "name": "วิภาวดี",
        "changwat_pid": "84"
      },
      {
        "pid": "8501",
        "name": "เมืองระนอง",
        "changwat_pid": "85"
      },
      {
        "pid": "8502",
        "name": "ละอุ่น",
        "changwat_pid": "85"
      },
      {
        "pid": "8503",
        "name": "กะเปอร์",
        "changwat_pid": "85"
      },
      {
        "pid": "8504",
        "name": "กระบุรี",
        "changwat_pid": "85"
      },
      {
        "pid": "8505",
        "name": "สุขสำราญ",
        "changwat_pid": "85"
      },
      {
        "pid": "8601",
        "name": "เมืองชุมพร",
        "changwat_pid": "86"
      },
      {
        "pid": "8602",
        "name": "ท่าแซะ",
        "changwat_pid": "86"
      },
      {
        "pid": "8603",
        "name": "ปะทิว",
        "changwat_pid": "86"
      },
      {
        "pid": "8604",
        "name": "หลังสวน",
        "changwat_pid": "86"
      },
      {
        "pid": "8605",
        "name": "ละแม",
        "changwat_pid": "86"
      },
      {
        "pid": "8606",
        "name": "พะโต๊ะ",
        "changwat_pid": "86"
      },
      {
        "pid": "8607",
        "name": "สวี",
        "changwat_pid": "86"
      },
      {
        "pid": "8608",
        "name": "ทุ่งตะโก",
        "changwat_pid": "86"
      },
      {
        "pid": "9001",
        "name": "เมืองสงขลา",
        "changwat_pid": "90"
      },
      {
        "pid": "9002",
        "name": "สทิงพระ",
        "changwat_pid": "90"
      },
      {
        "pid": "9003",
        "name": "จะนะ",
        "changwat_pid": "90"
      },
      {
        "pid": "9004",
        "name": "นาทวี",
        "changwat_pid": "90"
      },
      {
        "pid": "9005",
        "name": "เทพา",
        "changwat_pid": "90"
      },
      {
        "pid": "9006",
        "name": "สะบ้าย้อย",
        "changwat_pid": "90"
      },
      {
        "pid": "9007",
        "name": "ระโนด",
        "changwat_pid": "90"
      },
      {
        "pid": "9008",
        "name": "กระแสสินธุ์",
        "changwat_pid": "90"
      },
      {
        "pid": "9009",
        "name": "รัตภูมิ",
        "changwat_pid": "90"
      },
      {
        "pid": "9010",
        "name": "สะเดา",
        "changwat_pid": "90"
      },
      {
        "pid": "9011",
        "name": "หาดใหญ่",
        "changwat_pid": "90"
      },
      {
        "pid": "9012",
        "name": "นาหม่อม",
        "changwat_pid": "90"
      },
      {
        "pid": "9013",
        "name": "ควนเนียง",
        "changwat_pid": "90"
      },
      {
        "pid": "9014",
        "name": "บางกล่ำ",
        "changwat_pid": "90"
      },
      {
        "pid": "9015",
        "name": "สิงหนคร",
        "changwat_pid": "90"
      },
      {
        "pid": "9016",
        "name": "คลองหอยโข่ง",
        "changwat_pid": "90"
      },
      {
        "pid": "9101",
        "name": "เมืองสตูล",
        "changwat_pid": "91"
      },
      {
        "pid": "9102",
        "name": "ควนโดน",
        "changwat_pid": "91"
      },
      {
        "pid": "9103",
        "name": "ควนกาหลง",
        "changwat_pid": "91"
      },
      {
        "pid": "9104",
        "name": "ท่าแพ",
        "changwat_pid": "91"
      },
      {
        "pid": "9105",
        "name": "ละงู",
        "changwat_pid": "91"
      },
      {
        "pid": "9106",
        "name": "ทุ่งหว้า",
        "changwat_pid": "91"
      },
      {
        "pid": "9107",
        "name": "มะนัง",
        "changwat_pid": "91"
      },
      {
        "pid": "9201",
        "name": "เมืองตรัง",
        "changwat_pid": "92"
      },
      {
        "pid": "9202",
        "name": "กันตัง",
        "changwat_pid": "92"
      },
      {
        "pid": "9203",
        "name": "ย่านตาขาว",
        "changwat_pid": "92"
      },
      {
        "pid": "9204",
        "name": "ปะเหลียน",
        "changwat_pid": "92"
      },
      {
        "pid": "9205",
        "name": "สิเกา",
        "changwat_pid": "92"
      },
      {
        "pid": "9206",
        "name": "ห้วยยอด",
        "changwat_pid": "92"
      },
      {
        "pid": "9207",
        "name": "วังวิเศษ",
        "changwat_pid": "92"
      },
      {
        "pid": "9208",
        "name": "นาโยง",
        "changwat_pid": "92"
      },
      {
        "pid": "9209",
        "name": "รัษฎา",
        "changwat_pid": "92"
      },
      {
        "pid": "9210",
        "name": "หาดสำราญ",
        "changwat_pid": "92"
      },
      {
        "pid": "9301",
        "name": "เมืองพัทลุง",
        "changwat_pid": "93"
      },
      {
        "pid": "9302",
        "name": "กงหรา",
        "changwat_pid": "93"
      },
      {
        "pid": "9303",
        "name": "เขาชัยสน",
        "changwat_pid": "93"
      },
      {
        "pid": "9304",
        "name": "ตะโหมด",
        "changwat_pid": "93"
      },
      {
        "pid": "9305",
        "name": "ควนขนุน",
        "changwat_pid": "93"
      },
      {
        "pid": "9306",
        "name": "ปากพะยูน",
        "changwat_pid": "93"
      },
      {
        "pid": "9307",
        "name": "ศรีบรรพต",
        "changwat_pid": "93"
      },
      {
        "pid": "9308",
        "name": "ป่าบอน",
        "changwat_pid": "93"
      },
      {
        "pid": "9309",
        "name": "บางแก้ว",
        "changwat_pid": "93"
      },
      {
        "pid": "9310",
        "name": "ป่าพยอม",
        "changwat_pid": "93"
      },
      {
        "pid": "9311",
        "name": "ศรีนครินทร์",
        "changwat_pid": "93"
      },
      {
        "pid": "9401",
        "name": "เมืองปัตตานี",
        "changwat_pid": "94"
      },
      {
        "pid": "9402",
        "name": "โคกโพธิ์",
        "changwat_pid": "94"
      },
      {
        "pid": "9403",
        "name": "หนองจิก",
        "changwat_pid": "94"
      },
      {
        "pid": "9404",
        "name": "ปะนาเระ",
        "changwat_pid": "94"
      },
      {
        "pid": "9405",
        "name": "มายอ",
        "changwat_pid": "94"
      },
      {
        "pid": "9406",
        "name": "ทุ่งยางแดง",
        "changwat_pid": "94"
      },
      {
        "pid": "9407",
        "name": "สายบุรี",
        "changwat_pid": "94"
      },
      {
        "pid": "9408",
        "name": "ไม้แก่น",
        "changwat_pid": "94"
      },
      {
        "pid": "9409",
        "name": "ยะหริ่ง",
        "changwat_pid": "94"
      },
      {
        "pid": "9410",
        "name": "ยะรัง",
        "changwat_pid": "94"
      },
      {
        "pid": "9411",
        "name": "กะพ้อ",
        "changwat_pid": "94"
      },
      {
        "pid": "9412",
        "name": "แม่ลาน",
        "changwat_pid": "94"
      },
      {
        "pid": "9501",
        "name": "เมืองยะลา",
        "changwat_pid": "95"
      },
      {
        "pid": "9502",
        "name": "เบตง",
        "changwat_pid": "95"
      },
      {
        "pid": "9503",
        "name": "บันนังสตา",
        "changwat_pid": "95"
      },
      {
        "pid": "9504",
        "name": "ธารโต",
        "changwat_pid": "95"
      },
      {
        "pid": "9505",
        "name": "ยะหา",
        "changwat_pid": "95"
      },
      {
        "pid": "9506",
        "name": "รามัน",
        "changwat_pid": "95"
      },
      {
        "pid": "9507",
        "name": "กาบัง",
        "changwat_pid": "95"
      },
      {
        "pid": "9508",
        "name": "กรงปีนัง",
        "changwat_pid": "95"
      },
      {
        "pid": "9601",
        "name": "เมืองนราธิวาส",
        "changwat_pid": "96"
      },
      {
        "pid": "9602",
        "name": "ตากใบ",
        "changwat_pid": "96"
      },
      {
        "pid": "9603",
        "name": "บาเจาะ",
        "changwat_pid": "96"
      },
      {
        "pid": "9604",
        "name": "ยี่งอ",
        "changwat_pid": "96"
      },
      {
        "pid": "9605",
        "name": "ระแงะ",
        "changwat_pid": "96"
      },
      {
        "pid": "9606",
        "name": "รือเสาะ",
        "changwat_pid": "96"
      },
      {
        "pid": "9607",
        "name": "ศรีสาคร",
        "changwat_pid": "96"
      },
      {
        "pid": "9608",
        "name": "แว้ง",
        "changwat_pid": "96"
      },
      {
        "pid": "9609",
        "name": "สุคิริน",
        "changwat_pid": "96"
      },
      {
        "pid": "9610",
        "name": "สุไหงโก-ลก",
        "changwat_pid": "96"
      },
      {
        "pid": "9611",
        "name": "สุไหงปาดี",
        "changwat_pid": "96"
      },
      {
        "pid": "9612",
        "name": "จะแนะ",
        "changwat_pid": "96"
      },
      {
        "pid": "9613",
        "name": "เจาะไอร้อง",
        "changwat_pid": "96"
      }
    ]
  }
}