{
  "preTest": [

    {
      "problem1": "1.หญิงตั้งครรภ์ให้ประวัติว่าเคยเจ็บครรภ์ทุก 15 นาที และต่อมาเจ็บ ทุก 5 นาที และอาการเจ็บครรภ์มากขึ้นกว่าเดิมอาการดังกล่าว เป็นอาการเจ็บครรภ์จริง ",
      "choice1": "ใช่",
      "choice2": "ไม่ใช่",
      "part": "อาการเจ็บครรภ์จริง"
    },
    {
      "problem2": "2. หญิงตั้งครรภ์มีมูกเลือดออกเลอะกางเกงในอาการดังกล่าวเป็นอาการเจ็บครรภ์จริงควรมาพบแพทย์",
      "choice1": "ใช่",
      "choice2": "ไม่ใช่",
      "part": "อาการเจ็บครรภ์จริง"

    },
    {
      "problem3": "3. หญิงตั้งครรภ์ให้ประวัติว่าเคยเจ็บครรภ์ทุก 15 นาทีนั่งพักแล้วหาย ต่อมา 1 ชั่วโมงมีอาการเจ็บครรภ์ขึ้นอีกครั้งอาการดังกล่าวเป็นอาการเจ็บครรภ์จริง",
      "choice1": "ใช่",
      "choice2": "ไม่ใช่",
      "part": "อาการเจ็บครรภ์จริง"
    },
    {
      "problem4": "4.หญิงตั้งครรภ์รู้สึกว่ามีน้ำใสๆเปียกชื้นเต็มกางเกงชั้นใน ไม่สามารถกลั้นไว้ได้และเมื่อดมแล้วไม่ใช่กลิ่นปัสสาวะเป็นอาการเจ็บครรภ์จริง",
      "choice1": "ใช่",
      "choice2": "ไม่ใช่",
      "part": "อาการเจ็บครรภ์จริง"
    },
    {
      "problem5": "5.ถ้าผลการนับลูกดิ้นน้อยกว่า 3 ครั้งใน 1 ชั่วโมงให้จับเวลานับลูกดิ้นใหม่ต่ออีก 1 ชั่วโมงถ้าดิ้นมากกว่า 3 ครั้งใน 1 ชั่วโมงต้องมาพบแพทย์",
      "choice1": "ใช่",
      "choice2": "ไม่ใช่",
      "part": "การนับลูกดิ้น"
    },
    {
      "problem6": "6.ถ้าผลการนับลูกดิ้นน้อยกว่า 3 ครั้งใน 1 ชั่วโมงให้จับเวลานับลูกดิ้นใหม่ต่ออีก 1 ชั่วโมงถ้าดิ้นมากกว่า 3 ครั้งใน 1 ชั่วโมงต้องมาพบแพทย์",
      "choice1": "ใช่",
      "choice2": "ไม่ใช่",
      "part": "การนับลูกดิ้น"
    },
    {
      "problem7": "7.เกณฑ์ปกติการนับลูกดิ้น หมายถึง 1 ชั่วโมงหลังรับประทานอาหารทารกต้องดิ้นเกิน 3 ครั้งขึ้นไป",
      "choice1": "ใช่",
      "choice2": "ไม่ใช่",
      "part": "การนับลูกดิ้น"
    },
    {
      "problem8": "8.หากคุณแม่มีเลือดออกทางช่องคลอดซึ่งเป็นเลือดสีแดงสดและมีปริมาณมาก ต้องรีบมาโรงพยาบาลทันที",
      "choice1": "ใช่",
      "choice2": "ไม่ใช่",
      "part": "อาการผิดปกติที่ควรมาโรงพยาบาล"
    },
    {
      "problem9": "9.หากคุณแม่มีนัดฝากครรภ์กับคุณหมออีก 3 วันข้างหน้า แต่วันนี้นับลูกดิ้นแล้วไม่ถึงเกณฑ์ที่คุณหมอกำหนด คุณแม่ควรมาพบหมอที่โรงพยาบาลก่อนวันนัดได้",
      "choice1": "ใช่",
      "choice2": "ไม่ใช่",
      "part": "อาการผิดปกติที่ควรมาโรงพยาบาล"
    },
    {
      "problem10": "10.อาการปวดศีรษะ ตาพร่ามัว จุกแน่นลิ้นปี่ เป็นอาการผิดปกติที่คุณแม่ควรมาพบแพทย์ก่อนวันนัด",
      "choice1": "ใช่",
      "choice2": "ไม่ใช่",
      "part": "อาการผิดปกติที่ควรมาโรงพยาบาล"
    },
    {
      "problem11": "11. อาการคลื่นไส้ อาเจียนมาก เป็นอาการปกติของหญิงตั้งครรภ์ไตรมาส 3 ไม่ต้องมาโรงพยาบาล",
      "choice1": "ใช่",
      "choice2": "ไม่ใช่",
      "part": "อาการผิดปกติที่ควรมาโรงพยาบาล"
    }

  ]
}